EESchema Schematic File Version 4
EELAYER 30 0
EELAYER END
$Descr A4 11693 8268
encoding utf-8
Sheet 1 1
Title ""
Date ""
Rev ""
Comp ""
Comment1 ""
Comment2 ""
Comment3 ""
Comment4 ""
$EndDescr
$Comp
L MCU_Microchip_ATtiny:ATtiny412-SS U1
U 1 1 5FBD5AFE
P 3900 3050
F 0 "U1" H 3371 3096 50  0000 R CNN
F 1 "ATtiny412-SS" H 3371 3005 50  0000 R CNN
F 2 "fab:fab_IC_SOIC8" H 3900 3050 50  0001 C CIN
F 3 "http://ww1.microchip.com/downloads/en/DeviceDoc/40001911A.pdf" H 3900 3050 50  0001 C CNN
	1    3900 3050
	1    0    0    -1  
$EndComp
$Comp
L Connector_Generic:Conn_02x02_Counter_Clockwise J2
U 1 1 5FBD6013
P 6000 2950
F 0 "J2" H 6050 3167 50  0000 C CNN
F 1 "Conn_02x02_Counter_Clockwise" H 6050 3076 50  0000 C CNN
F 2 "fab:fab_CONN_2x02_SMD" H 6000 2950 50  0001 C CNN
F 3 "~" H 6000 2950 50  0001 C CNN
	1    6000 2950
	1    0    0    1   
$EndComp
$Comp
L Connector_Generic:Conn_01x02 J1
U 1 1 5FBD6611
P 5250 1900
F 0 "J1" H 5330 1892 50  0000 L CNN
F 1 "Conn_01x02" H 5330 1801 50  0000 L CNN
F 2 "fab:fab_CONN_1x02_SMD" H 5250 1900 50  0001 C CNN
F 3 "~" H 5250 1900 50  0001 C CNN
	1    5250 1900
	0    -1   -1   0   
$EndComp
$Comp
L Device:R_POT RV1
U 1 1 5FBD7269
P 5550 3250
F 0 "RV1" H 5481 3296 50  0000 R CNN
F 1 "R_POT" H 5481 3205 50  0000 R CNN
F 2 "fantest:pot_backmtg" H 5550 3250 50  0001 C CNN
F 3 "~" H 5550 3250 50  0001 C CNN
	1    5550 3250
	-1   0    0    -1  
$EndComp
$Comp
L Device:LED D1
U 1 1 5FBD75F2
P 5600 5050
F 0 "D1" H 5593 5267 50  0000 C CNN
F 1 "LED" H 5593 5176 50  0000 C CNN
F 2 "fab:fab_LED_1206" H 5600 5050 50  0001 C CNN
F 3 "~" H 5600 5050 50  0001 C CNN
	1    5600 5050
	-1   0    0    1   
$EndComp
$Comp
L Device:R R1
U 1 1 5FBD79E7
P 5350 2400
F 0 "R1" H 5420 2446 50  0000 L CNN
F 1 "R" H 5420 2355 50  0000 L CNN
F 2 "fab:fab_R_1206" V 5280 2400 50  0001 C CNN
F 3 "~" H 5350 2400 50  0001 C CNN
	1    5350 2400
	1    0    0    -1  
$EndComp
$Comp
L Device:R R2
U 1 1 5FBD7D61
P 5150 5050
F 0 "R2" H 5220 5096 50  0000 L CNN
F 1 "R" H 5220 5005 50  0000 L CNN
F 2 "fab:fab_R_1206" V 5080 5050 50  0001 C CNN
F 3 "~" H 5150 5050 50  0001 C CNN
	1    5150 5050
	0    1    1    0   
$EndComp
$Comp
L fantest:BUCK_VXO7805-500-M-TR U2
U 1 1 5FBD842D
P 3700 4950
F 0 "U2" H 3725 5315 50  0000 C CNN
F 1 "BUCK_VXO7805-500-M-TR" H 3725 5224 50  0000 C CNN
F 2 "fantest:BUCK_VXO7805-500-M-TR" H 3700 4950 50  0001 C CNN
F 3 "" H 3700 4950 50  0001 C CNN
	1    3700 4950
	1    0    0    -1  
$EndComp
Wire Wire Line
	5250 2100 5250 2750
Wire Wire Line
	5250 2750 4500 2750
Wire Wire Line
	5350 2250 5350 2100
Wire Wire Line
	5350 2550 5350 2750
Wire Wire Line
	5350 2750 5250 2750
Connection ~ 5250 2750
$Comp
L power:+5V #PWR0101
U 1 1 5FBDC78B
P 3900 2250
F 0 "#PWR0101" H 3900 2100 50  0001 C CNN
F 1 "+5V" H 3915 2423 50  0000 C CNN
F 2 "" H 3900 2250 50  0001 C CNN
F 3 "" H 3900 2250 50  0001 C CNN
	1    3900 2250
	1    0    0    -1  
$EndComp
Wire Wire Line
	3900 2250 3900 2350
$Comp
L power:GND #PWR0102
U 1 1 5FBDCDE6
P 3900 3850
F 0 "#PWR0102" H 3900 3600 50  0001 C CNN
F 1 "GND" H 3905 3677 50  0000 C CNN
F 2 "" H 3900 3850 50  0001 C CNN
F 3 "" H 3900 3850 50  0001 C CNN
	1    3900 3850
	1    0    0    -1  
$EndComp
Wire Wire Line
	3900 3850 3900 3750
Wire Wire Line
	2200 4850 2550 4850
$Comp
L power:+24V #PWR0103
U 1 1 5FBE15BB
P 2550 4650
F 0 "#PWR0103" H 2550 4500 50  0001 C CNN
F 1 "+24V" H 2565 4823 50  0000 C CNN
F 2 "" H 2550 4650 50  0001 C CNN
F 3 "" H 2550 4650 50  0001 C CNN
	1    2550 4650
	1    0    0    -1  
$EndComp
Wire Wire Line
	2550 4650 2550 4850
Connection ~ 2550 4850
$Comp
L power:GND #PWR0104
U 1 1 5FBE1F5D
P 2550 5800
F 0 "#PWR0104" H 2550 5550 50  0001 C CNN
F 1 "GND" H 2555 5627 50  0000 C CNN
F 2 "" H 2550 5800 50  0001 C CNN
F 3 "" H 2550 5800 50  0001 C CNN
	1    2550 5800
	1    0    0    -1  
$EndComp
Wire Wire Line
	5800 2950 4500 2950
$Comp
L power:+24V #PWR0105
U 1 1 5FBE756F
P 6550 2550
F 0 "#PWR0105" H 6550 2400 50  0001 C CNN
F 1 "+24V" H 6565 2723 50  0000 C CNN
F 2 "" H 6550 2550 50  0001 C CNN
F 3 "" H 6550 2550 50  0001 C CNN
	1    6550 2550
	1    0    0    -1  
$EndComp
Wire Wire Line
	6550 2550 6550 2850
Wire Wire Line
	6550 2850 6300 2850
$Comp
L power:GND #PWR0106
U 1 1 5FBE8BFC
P 6550 3200
F 0 "#PWR0106" H 6550 2950 50  0001 C CNN
F 1 "GND" H 6555 3027 50  0000 C CNN
F 2 "" H 6550 3200 50  0001 C CNN
F 3 "" H 6550 3200 50  0001 C CNN
	1    6550 3200
	1    0    0    -1  
$EndComp
Wire Wire Line
	6550 3200 6550 2950
Wire Wire Line
	6550 2950 6300 2950
$Comp
L Device:C C1
U 1 1 5FBECD6D
P 2850 5100
F 0 "C1" H 2965 5146 50  0000 L CNN
F 1 "10u" H 2965 5055 50  0000 L CNN
F 2 "fab:fab_C_1206" H 2888 4950 50  0001 C CNN
F 3 "~" H 2850 5100 50  0001 C CNN
	1    2850 5100
	1    0    0    -1  
$EndComp
Wire Wire Line
	2550 4850 2850 4850
Wire Wire Line
	2850 4950 2850 4850
Connection ~ 2850 4850
Wire Wire Line
	2850 4850 3350 4850
Wire Wire Line
	2550 5400 2850 5400
Wire Wire Line
	2850 5400 2850 5250
Wire Wire Line
	2850 5400 3250 5400
Wire Wire Line
	3250 5400 3250 5050
Wire Wire Line
	3250 5050 3350 5050
Connection ~ 2850 5400
Wire Wire Line
	2550 5800 2550 5400
$Comp
L power:GND #PWR0107
U 1 1 5FBF3734
P 4500 5800
F 0 "#PWR0107" H 4500 5550 50  0001 C CNN
F 1 "GND" H 4505 5627 50  0000 C CNN
F 2 "" H 4500 5800 50  0001 C CNN
F 3 "" H 4500 5800 50  0001 C CNN
	1    4500 5800
	1    0    0    -1  
$EndComp
Wire Wire Line
	4500 5800 4500 5650
Wire Wire Line
	4500 4850 4100 4850
$Comp
L Device:C C2
U 1 1 5FBF42C6
P 4250 5350
F 0 "C2" H 4365 5396 50  0000 L CNN
F 1 "10u" H 4365 5305 50  0000 L CNN
F 2 "fab:fab_C_1206" H 4288 5200 50  0001 C CNN
F 3 "~" H 4250 5350 50  0001 C CNN
	1    4250 5350
	1    0    0    -1  
$EndComp
Wire Wire Line
	4250 5200 4250 5050
Wire Wire Line
	4250 5050 4100 5050
Wire Wire Line
	4250 5500 4250 5650
Wire Wire Line
	4250 5650 4500 5650
Connection ~ 4500 5650
Wire Wire Line
	4500 5650 4500 4850
$Comp
L power:+5V #PWR0108
U 1 1 5FBF6BCE
P 4850 4650
F 0 "#PWR0108" H 4850 4500 50  0001 C CNN
F 1 "+5V" H 4865 4823 50  0000 C CNN
F 2 "" H 4850 4650 50  0001 C CNN
F 3 "" H 4850 4650 50  0001 C CNN
	1    4850 4650
	1    0    0    -1  
$EndComp
Wire Wire Line
	4850 4650 4850 5050
Wire Wire Line
	4850 5050 4250 5050
Connection ~ 4250 5050
Wire Wire Line
	5000 5050 4850 5050
Connection ~ 4850 5050
Wire Wire Line
	5300 5050 5450 5050
$Comp
L power:GND #PWR0109
U 1 1 5FBFD542
P 5950 5800
F 0 "#PWR0109" H 5950 5550 50  0001 C CNN
F 1 "GND" H 5955 5627 50  0000 C CNN
F 2 "" H 5950 5800 50  0001 C CNN
F 3 "" H 5950 5800 50  0001 C CNN
	1    5950 5800
	1    0    0    -1  
$EndComp
Wire Wire Line
	5950 5800 5950 5050
Wire Wire Line
	5950 5050 5750 5050
Wire Wire Line
	5400 3250 4500 3250
$Comp
L power:+5V #PWR0110
U 1 1 5FC04D4B
P 5550 2250
F 0 "#PWR0110" H 5550 2100 50  0001 C CNN
F 1 "+5V" H 5565 2423 50  0000 C CNN
F 2 "" H 5550 2250 50  0001 C CNN
F 3 "" H 5550 2250 50  0001 C CNN
	1    5550 2250
	1    0    0    -1  
$EndComp
Wire Wire Line
	5550 2250 5550 3100
$Comp
L power:GND #PWR0111
U 1 1 5FC05E04
P 5550 3850
F 0 "#PWR0111" H 5550 3600 50  0001 C CNN
F 1 "GND" H 5555 3677 50  0000 C CNN
F 2 "" H 5550 3850 50  0001 C CNN
F 3 "" H 5550 3850 50  0001 C CNN
	1    5550 3850
	1    0    0    -1  
$EndComp
Wire Wire Line
	5550 3850 5550 3400
$Comp
L Connector_Generic:Conn_01x03 J3
U 1 1 5FC0B2E9
P 2000 4950
F 0 "J3" H 1918 5267 50  0000 C CNN
F 1 "Conn_01x03" H 1918 5176 50  0000 C CNN
F 2 "Connector_BarrelJack:BarrelJack_CLIFF_FC681465S_SMT_Horizontal" H 2000 4950 50  0001 C CNN
F 3 "~" H 2000 4950 50  0001 C CNN
	1    2000 4950
	-1   0    0    -1  
$EndComp
Wire Wire Line
	2550 5050 2550 5400
Connection ~ 2550 5400
Wire Wire Line
	2200 5050 2550 5050
$Comp
L Device:C C3
U 1 1 5FC1263E
P 2750 3100
F 0 "C3" H 2865 3146 50  0000 L CNN
F 1 "1u" H 2865 3055 50  0000 L CNN
F 2 "fab:fab_C_1206" H 2788 2950 50  0001 C CNN
F 3 "~" H 2750 3100 50  0001 C CNN
	1    2750 3100
	1    0    0    -1  
$EndComp
Wire Wire Line
	2750 3250 2750 3750
Wire Wire Line
	2750 3750 3900 3750
Connection ~ 3900 3750
Wire Wire Line
	3900 3750 3900 3650
Wire Wire Line
	2750 2950 2750 2350
Wire Wire Line
	2750 2350 3900 2350
Connection ~ 3900 2350
Wire Wire Line
	3900 2350 3900 2450
$EndSCHEMATC
