<?xml version="1.0" encoding="UTF-8" standalone="no"?>
<svg
   xmlns:dc="http://purl.org/dc/elements/1.1/"
   xmlns:cc="http://creativecommons.org/ns#"
   xmlns:rdf="http://www.w3.org/1999/02/22-rdf-syntax-ns#"
   xmlns:svg="http://www.w3.org/2000/svg"
   xmlns="http://www.w3.org/2000/svg"
   id="svg386"
   viewBox="0 0 12598.433 33070.635"
   height="8.3999414cm"
   width="3.200002cm"
   version="1.1">
  <metadata
     id="metadata392">
    <rdf:RDF>
      <cc:Work
         rdf:about="">
        <dc:format>image/svg+xml</dc:format>
        <dc:type
           rdf:resource="http://purl.org/dc/dcmitype/StillImage" />
        <dc:title>SVG Picture created as fantest-brd.svg date 2020/11/24 14:55:15 </dc:title>
      </cc:Work>
    </rdf:RDF>
  </metadata>
  <defs
     id="defs390" />
  <title
     id="title2">SVG Picture created as fantest-brd.svg date 2020/11/24 14:55:15 </title>
  <desc
     id="desc4">Picture generated by PCBNEW </desc>
  <g
     transform="translate(-1350.7692,-22.468729)"
     id="g6"
     style="fill:#000000;fill-opacity:1;stroke:#000000;stroke-linecap:round;stroke-linejoin:round;stroke-opacity:1" />
  <g
     transform="translate(-1350.7692,-22.468729)"
     id="g264"
     style="fill:#ffffff;fill-opacity:1;stroke:#ffffff;stroke-width:196.8500061;stroke-linecap:round;stroke-linejoin:round;stroke-opacity:1" />
  <g
     transform="translate(-1350.7692,-22.468729)"
     id="g270"
     style="fill:#ffffff;fill-opacity:1;stroke:#ffffff;stroke-width:39.37009811;stroke-linecap:round;stroke-linejoin:round;stroke-opacity:1" />
  <g
     transform="translate(-1350.7692,-22.468729)"
     id="g276"
     style="fill:#ffffff;fill-opacity:1;stroke:#ffffff;stroke-width:39.37009811;stroke-linecap:round;stroke-linejoin:round;stroke-opacity:1" />
  <g
     transform="translate(-1350.7692,-22.468729)"
     id="g282"
     style="fill:#ffffff;fill-opacity:1;stroke:#ffffff;stroke-width:39.37009811;stroke-linecap:round;stroke-linejoin:round;stroke-opacity:1" />
  <g
     transform="translate(-1350.7692,-22.468729)"
     id="g288"
     style="fill:#ffffff;fill-opacity:1;stroke:#ffffff;stroke-width:39.37009811;stroke-linecap:round;stroke-linejoin:round;stroke-opacity:1" />
  <g
     transform="translate(-1350.7692,-22.468729)"
     id="g290"
     style="fill:#ffffff;fill-opacity:1;stroke:#ffffff;stroke-width:590.55102539;stroke-linecap:round;stroke-linejoin:round;stroke-opacity:1" />
  <g
     transform="translate(-1350.7692,-22.468729)"
     id="g300"
     style="fill:#ffffff;fill-opacity:1;stroke:#ffffff;stroke-width:39.37009811;stroke-linecap:round;stroke-linejoin:round;stroke-opacity:1" />
  <g
     transform="translate(-1350.7692,-22.468729)"
     id="g306"
     style="fill:#ffffff;fill-opacity:1;stroke:#ffffff;stroke-width:39.37009811;stroke-linecap:round;stroke-linejoin:round;stroke-opacity:1" />
  <g
     transform="translate(-1350.7692,-22.468729)"
     id="g312"
     style="fill:#ffffff;fill-opacity:1;stroke:#ffffff;stroke-width:39.37009811;stroke-linecap:round;stroke-linejoin:round;stroke-opacity:1" />
  <g
     transform="translate(-1350.7692,-22.468729)"
     id="g318"
     style="fill:#ffffff;fill-opacity:1;stroke:#ffffff;stroke-width:39.37009811;stroke-linecap:round;stroke-linejoin:round;stroke-opacity:1" />
  <g
     transform="translate(-1350.7692,-22.468729)"
     id="g324"
     style="fill:#ffffff;fill-opacity:1;stroke:#ffffff;stroke-width:39.37009811;stroke-linecap:round;stroke-linejoin:round;stroke-opacity:1" />
  <g
     transform="translate(-1350.7692,-22.468729)"
     id="g330"
     style="fill:#ffffff;fill-opacity:1;stroke:#ffffff;stroke-width:39.37009811;stroke-linecap:round;stroke-linejoin:round;stroke-opacity:1" />
  <g
     transform="translate(-1350.7692,-22.468729)"
     id="g332"
     style="fill:#000000;fill-opacity:1;stroke:#000000;stroke-width:39.37009811;stroke-linecap:round;stroke-linejoin:round;stroke-opacity:1" />
  <g
     transform="translate(-1350.7692,-22.468729)"
     style="display:none"
     id="layer1">
    <g
       id="g268"
       style="fill:#000000;fill-opacity:1;stroke:#ffffff;stroke-width:0;stroke-linecap:round;stroke-linejoin:round;stroke-opacity:1">
      <circle
         style="fill:#000000;fill-opacity:1"
         id="circle266"
         r="846.45599"
         cy="30731.301"
         cx="11587.5" />
    </g>
    <g
       id="g274"
       style="fill:#000000;fill-opacity:1;stroke:#ffffff;stroke-width:0;stroke-linecap:round;stroke-linejoin:round;stroke-opacity:1">
      <circle
         style="fill:#000000;fill-opacity:1"
         id="circle272"
         r="846.45599"
         cy="30731.301"
         cx="3713.4399" />
    </g>
    <g
       id="g280"
       style="fill:#000000;fill-opacity:1;stroke:#ffffff;stroke-width:0;stroke-linecap:round;stroke-linejoin:round;stroke-opacity:1">
      <circle
         style="fill:#000000;fill-opacity:1"
         id="circle278"
         r="846.45599"
         cy="2384.8401"
         cx="11587.5" />
    </g>
    <g
       id="g286"
       style="fill:#000000;fill-opacity:1;stroke:#ffffff;stroke-width:0;stroke-linecap:round;stroke-linejoin:round;stroke-opacity:1">
      <circle
         style="fill:#000000;fill-opacity:1"
         id="circle284"
         r="846.45599"
         cy="2384.8401"
         cx="3713.4399" />
    </g>
    <g
       id="g294"
       style="fill:#000000;fill-opacity:1;stroke:#ffffff;stroke-width:590.55102539;stroke-linecap:round;stroke-linejoin:round;stroke-opacity:1">
      <path
         style="fill:#000000;fill-opacity:1"
         id="path292"
         d="m 11548,7798 v 197" />
    </g>
    <g
       id="g298"
       style="fill:#000000;fill-opacity:1;stroke:#ffffff;stroke-width:0;stroke-linecap:round;stroke-linejoin:round;stroke-opacity:1">
      <circle
         style="fill:#000000;fill-opacity:1"
         id="circle296"
         r="393.70099"
         cy="7896.6499"
         cx="9815.7998" />
    </g>
    <g
       id="g304"
       style="fill:#000000;fill-opacity:1;stroke:#ffffff;stroke-width:0;stroke-linecap:round;stroke-linejoin:round;stroke-opacity:1">
      <circle
         style="fill:#000000;fill-opacity:1"
         id="circle302"
         r="196.85001"
         cy="21676.199"
         cx="5650.4502" />
    </g>
    <g
       id="g310"
       style="fill:#000000;fill-opacity:1;stroke:#ffffff;stroke-width:0;stroke-linecap:round;stroke-linejoin:round;stroke-opacity:1">
      <circle
         style="fill:#000000;fill-opacity:1"
         id="circle308"
         r="196.85001"
         cy="21676.199"
         cx="7650.4502" />
    </g>
    <g
       id="g316"
       style="fill:#000000;fill-opacity:1;stroke:#ffffff;stroke-width:0;stroke-linecap:round;stroke-linejoin:round;stroke-opacity:1">
      <circle
         style="fill:#000000;fill-opacity:1"
         id="circle314"
         r="196.85001"
         cy="21676.199"
         cx="9650.4502" />
    </g>
    <g
       id="g322"
       style="fill:#000000;fill-opacity:1;stroke:#ffffff;stroke-width:0;stroke-linecap:round;stroke-linejoin:round;stroke-opacity:1">
      <circle
         style="fill:#000000;fill-opacity:1"
         id="circle320"
         r="1377.95"
         cy="16676.199"
         cx="7650.4502" />
    </g>
    <g
       id="g328"
       style="fill:#000000;fill-opacity:1;stroke:#ffffff;stroke-width:0;stroke-linecap:round;stroke-linejoin:round;stroke-opacity:1">
      <circle
         style="fill:#000000;fill-opacity:1"
         id="circle326"
         r="590.55103"
         cy="16676.199"
         cx="4400.4502" />
    </g>
  </g>
  <g
     transform="translate(-1350.7692,-22.468729)"
     style="display:inline"
     id="layer2">
    <g
       id="g384"
       style="fill:#000000;fill-opacity:0;stroke:#000000;stroke-width:19.68499947;stroke-linecap:round;stroke-linejoin:round;stroke-opacity:1">
      <path
         style="fill:#000000;fill-opacity:1;stroke:none"
         d="M 12979.44,992.89965 C 12610.275,623.73408 12109.579,416.339 11587.25,416.1695 H 3713.22 C 3191.3612,416.339 2690.6653,623.73408 2321.4999,992.89965 1952.3346,1362.0652 1744.9397,1862.7612 1744.47,2384.42 v 28346.73 c 0.47,522.229 207.8649,1022.924 577.0303,1392.09 369.1654,369.165 869.861,576.56 1391.7197,576.16 h 7874.03 c 522.329,0.4 1023.024,-206.995 1392.19,-576.16 369.165,-369.166 576.56,-869.861 576.06,-1392.09 V 2384.42 c 0.5,-521.6588 -206.895,-1022.3548 -576.06,-1391.52035 z"
         id="path348" />
      <g
         id="g350" />
      <g
         id="g352" />
      <g
         id="g354" />
      <g
         id="g356" />
      <g
         id="g358" />
      <g
         id="g360" />
      <g
         id="g362" />
      <g
         id="g364" />
      <g
         id="g366" />
      <g
         id="g368" />
      <g
         id="g370" />
      <g
         id="g372" />
      <g
         id="g374" />
      <g
         id="g376" />
      <g
         id="g378" />
      <g
         id="g380" />
      <g
         id="g382" />
    </g>
  </g>
  <g
     transform="translate(-1350.7692,-22.468729)"
     style="display:none"
     id="layer3">
    <g
       id="g262"
       style="fill:#000000;fill-opacity:0;stroke:#000000;stroke-width:-0.0003937;stroke-linecap:round;stroke-linejoin:round;stroke-opacity:1">
      <g
         id="g8" />
      <g
         id="g10" />
      <g
         id="g12" />
      <g
         id="g14" />
      <g
         id="g16" />
      <g
         id="g18"
         style="fill:#000000;fill-opacity:0;stroke:#000000;stroke-width:-0.0003937;stroke-linecap:round;stroke-linejoin:round;stroke-opacity:1" />
      <g
         id="g20"
         style="fill:#000000;fill-opacity:0;stroke:#000000;stroke-width:0;stroke-linecap:round;stroke-linejoin:round;stroke-opacity:1" />
      <g
         id="g26"
         style="fill:#000000;fill-opacity:1;stroke:#000000;stroke-width:0;stroke-linecap:round;stroke-linejoin:round;stroke-opacity:1">
        <path
           id="path22"
           d="m 7858.32,11440 v 787.4 H 7267.77 V 11440 Z"
           style="fill:#000000;fill-opacity:1;fill-rule:evenodd;stroke:#000000;stroke-width:0;stroke-linecap:round;stroke-linejoin:round;stroke-opacity:1" />
        <path
           id="path24"
           d="m 6458.32,11440 v 787.4 H 5867.77 V 11440 Z"
           style="fill:#000000;fill-opacity:1;fill-rule:evenodd;stroke:#000000;stroke-width:0;stroke-linecap:round;stroke-linejoin:round;stroke-opacity:1" />
      </g>
      <g
         id="g28" />
      <g
         id="g34"
         style="fill:#000000;fill-opacity:1;stroke:#000000;stroke-width:0;stroke-linecap:round;stroke-linejoin:round;stroke-opacity:1">
        <path
           id="path30"
           d="m 2521.32,11440 v 787.4 H 1930.76 V 11440 Z"
           style="fill:#000000;fill-opacity:1;fill-rule:evenodd;stroke:#000000;stroke-width:0;stroke-linecap:round;stroke-linejoin:round;stroke-opacity:1" />
        <path
           id="path32"
           d="m 3921.32,11440 v 787.4 H 3330.76 V 11440 Z"
           style="fill:#000000;fill-opacity:1;fill-rule:evenodd;stroke:#000000;stroke-width:0;stroke-linecap:round;stroke-linejoin:round;stroke-opacity:1" />
      </g>
      <g
         id="g36" />
      <g
         id="g42"
         style="fill:#000000;fill-opacity:1;stroke:#000000;stroke-width:0;stroke-linecap:round;stroke-linejoin:round;stroke-opacity:1">
        <path
           id="path38"
           d="m 7858.32,13014.8 v 787.4 h -590.55 v -787.4 z"
           style="fill:#000000;fill-opacity:1;fill-rule:evenodd;stroke:#000000;stroke-width:0;stroke-linecap:round;stroke-linejoin:round;stroke-opacity:1" />
        <path
           id="path40"
           d="m 6458.32,13014.8 v 787.4 h -590.55 v -787.4 z"
           style="fill:#000000;fill-opacity:1;fill-rule:evenodd;stroke:#000000;stroke-width:0;stroke-linecap:round;stroke-linejoin:round;stroke-opacity:1" />
      </g>
      <g
         id="g44" />
      <g
         id="g50"
         style="fill:#000000;fill-opacity:1;stroke:#000000;stroke-width:0;stroke-linecap:round;stroke-linejoin:round;stroke-opacity:1">
        <path
           id="path46"
           d="m 11222.5,20692.5 12,1.8 11.7,2.9 11.4,4.1 10.9,5.2 10.3,6.2 9.7,7.2 9,8.1 8.1,8.9 7.2,9.7 6.2,10.4 5.2,10.9 4,11.3 3,11.8 1.7,11.9 0.6,12.1 v 935 l -0.6,12.1 -1.7,11.9 -3,11.7 -4,11.4 -5.2,10.9 -6.2,10.4 -7.2,9.7 -8.1,8.9 -9,8.1 -9.7,7.2 -10.3,6.2 -10.9,5.2 -11.4,4 -11.7,3 -12,1.7 -12,0.6 h -246.1 l -12,-0.6 -12,-1.7 -11.7,-3 -11.4,-4 -10.9,-5.2 -10.3,-6.2 -9.7,-7.2 -9,-8.1 -8.1,-8.9 -7.2,-9.7 -6.2,-10.4 -5.1,-10.9 -4.1,-11.4 -2.9,-11.7 -1.8,-11.9 -0.6,-12.1 v -935 l 0.6,-12.1 1.8,-11.9 2.9,-11.8 4.1,-11.3 5.1,-10.9 6.2,-10.4 7.2,-9.7 8.1,-8.9 9,-8.1 9.7,-7.2 10.3,-6.2 10.9,-5.2 11.4,-4.1 11.7,-2.9 12,-1.8 12,-0.6 h 246.1 z"
           style="fill:#000000;fill-opacity:1;fill-rule:evenodd;stroke:#000000;stroke-width:0;stroke-linecap:round;stroke-linejoin:round;stroke-opacity:1" />
        <path
           id="path48"
           d="m 12333.5,21873 h -492.1 v -1181.1 h 492.1 z"
           style="fill:#000000;fill-opacity:1;fill-rule:evenodd;stroke:#000000;stroke-width:0;stroke-linecap:round;stroke-linejoin:round;stroke-opacity:1" />
      </g>
      <g
         id="g52" />
      <g
         id="g62"
         style="fill:#000000;fill-opacity:1;stroke:#000000;stroke-width:0;stroke-linecap:round;stroke-linejoin:round;stroke-opacity:1">
        <path
           id="path54"
           d="m 9380.03,30985.8 11.94,1.8 11.71,2.9 11.37,4.1 10.92,5.2 10.35,6.2 9.7,7.2 8.95,8.1 8.1,8.9 7.2,9.7 6.2,10.4 5.17,10.9 4.06,11.4 2.94,11.7 1.77,11.9 0.59,12.1 v 246 l -0.59,12.1 -1.77,11.9 -2.94,11.7 -4.06,11.4 -5.17,10.9 -6.2,10.4 -7.2,9.7 -8.1,8.9 -8.95,8.1 -9.7,7.2 -10.35,6.2 -10.92,5.2 -11.37,4.1 -11.71,2.9 -11.94,1.8 -12.06,0.6 h -935.04 l -12.06,-0.6 -11.94,-1.8 -11.71,-2.9 -11.37,-4.1 -10.92,-5.2 -10.35,-6.2 -9.7,-7.2 -8.95,-8.1 -8.1,-8.9 -7.2,-9.7 -6.2,-10.4 -5.17,-10.9 -4.06,-11.4 -2.94,-11.7 -1.77,-11.9 -0.59,-12.1 v -246 l 0.59,-12.1 1.77,-11.9 2.94,-11.7 4.06,-11.4 5.17,-10.9 6.2,-10.4 7.2,-9.7 8.1,-8.9 8.95,-8.1 9.7,-7.2 10.35,-6.2 10.92,-5.2 11.37,-4.1 11.71,-2.9 11.94,-1.8 12.06,-0.6 h 935.04 z"
           style="fill:#000000;fill-opacity:1;fill-rule:evenodd;stroke:#000000;stroke-width:0;stroke-linecap:round;stroke-linejoin:round;stroke-opacity:1" />
        <path
           id="path56"
           d="m 6991,30985.2 v 492.2 H 5809.9 v -492.2 z"
           style="fill:#000000;fill-opacity:1;fill-rule:evenodd;stroke:#000000;stroke-width:0;stroke-linecap:round;stroke-linejoin:round;stroke-opacity:1" />
        <path
           id="path58"
           d="m 9491,29985.2 v 492.2 H 8309.9 v -492.2 z"
           style="fill:#000000;fill-opacity:1;fill-rule:evenodd;stroke:#000000;stroke-width:0;stroke-linecap:round;stroke-linejoin:round;stroke-opacity:1" />
        <path
           id="path60"
           d="m 6991,29985.2 v 492.2 H 5809.9 v -492.2 z"
           style="fill:#000000;fill-opacity:1;fill-rule:evenodd;stroke:#000000;stroke-width:0;stroke-linecap:round;stroke-linejoin:round;stroke-opacity:1" />
      </g>
      <g
         id="g64" />
      <g
         id="g74"
         style="fill:#000000;fill-opacity:1;stroke:#000000;stroke-width:0;stroke-linecap:round;stroke-linejoin:round;stroke-opacity:1">
        <path
           id="path66"
           d="m 11193.8,9471.46 h 787.4 v 1181.14 h -787.4 z"
           style="fill:#000000;fill-opacity:1;fill-rule:evenodd;stroke:#000000;stroke-width:0;stroke-linecap:round;stroke-linejoin:round;stroke-opacity:1" />
        <path
           id="path68"
           d="m 8831.55,9471.46 h 787.4 v 1181.14 h -787.4 z"
           style="fill:#000000;fill-opacity:1;fill-rule:evenodd;stroke:#000000;stroke-width:0;stroke-linecap:round;stroke-linejoin:round;stroke-opacity:1" />
        <path
           id="path70"
           d="m 8831.55,5140.75 h 787.4 v 1181.1 h -787.4 z"
           style="fill:#000000;fill-opacity:1;fill-rule:evenodd;stroke:#000000;stroke-width:0;stroke-linecap:round;stroke-linejoin:round;stroke-opacity:1" />
        <path
           id="path72"
           d="m 11193.8,5140.75 h 787.4 v 1181.1 h -787.4 z"
           style="fill:#000000;fill-opacity:1;fill-rule:evenodd;stroke:#000000;stroke-width:0;stroke-linecap:round;stroke-linejoin:round;stroke-opacity:1" />
      </g>
      <g
         id="g76" />
      <g
         id="g82"
         style="fill:#000000;fill-opacity:1;stroke:#000000;stroke-width:0;stroke-linecap:round;stroke-linejoin:round;stroke-opacity:1">
        <path
           id="path78"
           d="m 10800.1,25821.1 h -787.4 v -590.6 h 787.4 z"
           style="fill:#000000;fill-opacity:1;fill-rule:evenodd;stroke:#000000;stroke-width:0;stroke-linecap:round;stroke-linejoin:round;stroke-opacity:1" />
        <path
           id="path80"
           d="m 10800.1,24421.1 h -787.4 v -590.6 h 787.4 z"
           style="fill:#000000;fill-opacity:1;fill-rule:evenodd;stroke:#000000;stroke-width:0;stroke-linecap:round;stroke-linejoin:round;stroke-opacity:1" />
      </g>
      <g
         id="g84" />
      <g
         id="g90"
         style="fill:#000000;fill-opacity:1;stroke:#000000;stroke-width:0;stroke-linecap:round;stroke-linejoin:round;stroke-opacity:1">
        <path
           id="path86"
           d="m 2521.32,13014.8 v 787.4 h -590.56 v -787.4 z"
           style="fill:#000000;fill-opacity:1;fill-rule:evenodd;stroke:#000000;stroke-width:0;stroke-linecap:round;stroke-linejoin:round;stroke-opacity:1" />
        <path
           id="path88"
           d="m 3921.32,13014.8 v 787.4 h -590.56 v -787.4 z"
           style="fill:#000000;fill-opacity:1;fill-rule:evenodd;stroke:#000000;stroke-width:0;stroke-linecap:round;stroke-linejoin:round;stroke-opacity:1" />
      </g>
      <g
         id="g92" />
      <g
         id="g96"
         style="fill:#000000;fill-opacity:1;stroke:#000000;stroke-width:0;stroke-linecap:round;stroke-linejoin:round;stroke-opacity:1">
        <circle
           id="circle94"
           r="393.70099"
           cy="21676.199"
           cx="5650.4502" />
      </g>
      <g
         id="g98"
         style="fill:#000000;fill-opacity:1;stroke:#000000;stroke-width:39.37009811;stroke-linecap:round;stroke-linejoin:round;stroke-opacity:1" />
      <g
         id="g102"
         style="fill:#000000;fill-opacity:1;stroke:#000000;stroke-width:0;stroke-linecap:round;stroke-linejoin:round;stroke-opacity:1">
        <circle
           id="circle100"
           r="393.70099"
           cy="21676.199"
           cx="7650.4502" />
      </g>
      <g
         id="g104"
         style="fill:#000000;fill-opacity:1;stroke:#000000;stroke-width:39.37009811;stroke-linecap:round;stroke-linejoin:round;stroke-opacity:1" />
      <g
         id="g108"
         style="fill:#000000;fill-opacity:1;stroke:#000000;stroke-width:0;stroke-linecap:round;stroke-linejoin:round;stroke-opacity:1">
        <circle
           id="circle106"
           r="393.70099"
           cy="21676.199"
           cx="9650.4502" />
      </g>
      <g
         id="g110"
         style="fill:#000000;fill-opacity:1;stroke:#000000;stroke-width:39.37009811;stroke-linecap:round;stroke-linejoin:round;stroke-opacity:1" />
      <g
         id="g112" />
      <g
         id="g114"
         style="fill:#000000;fill-opacity:1;stroke:#000000;stroke-width:39.37009811;stroke-linecap:round;stroke-linejoin:round;stroke-opacity:1" />
      <g
         id="g132"
         style="fill:#000000;fill-opacity:1;stroke:#000000;stroke-width:0;stroke-linecap:round;stroke-linejoin:round;stroke-opacity:1">
        <path
           id="path116"
           d="m 6798.13,23977.6 4.78,0.7 4.68,1.2 4.55,1.6 4.37,2.1 4.14,2.5 3.88,2.8 3.58,3.3 3.24,3.6 2.88,3.8 2.48,4.2 2.06,4.3 1.63,4.6 1.18,4.7 0.7,4.8 0.24,4.8 v 98.4 l -0.24,4.8 -0.7,4.8 -1.18,4.7 -1.63,4.5 -2.06,4.4 -2.48,4.1 -2.88,3.9 -3.24,3.6 -3.58,3.2 -3.88,2.9 -4.14,2.5 -4.37,2.1 -4.55,1.6 -4.68,1.2 -4.78,0.7 -4.82,0.2 h -767.72 l -4.82,-0.2 -4.78,-0.7 -4.68,-1.2 -4.55,-1.6 -4.37,-2.1 -4.14,-2.5 -3.88,-2.9 -3.58,-3.2 -3.24,-3.6 -2.88,-3.9 -2.48,-4.1 -2.06,-4.4 -1.63,-4.5 -1.18,-4.7 -0.7,-4.8 -0.24,-4.8 v -98.4 l 0.24,-4.8 0.7,-4.8 1.18,-4.7 1.63,-4.6 2.06,-4.3 2.48,-4.2 2.88,-3.8 3.24,-3.6 3.58,-3.3 3.88,-2.8 4.14,-2.5 4.37,-2.1 4.55,-1.6 4.68,-1.2 4.78,-0.7 4.82,-0.2 h 767.72 z"
           style="fill:#000000;fill-opacity:1;fill-rule:evenodd;stroke:#000000;stroke-width:0;stroke-linecap:round;stroke-linejoin:round;stroke-opacity:1" />
        <path
           id="path118"
           d="m 5976.38,24474.4 h 866.14 v 196.8 h -866.14 z"
           style="fill:#000000;fill-opacity:1;fill-rule:evenodd;stroke:#000000;stroke-width:0;stroke-linecap:round;stroke-linejoin:round;stroke-opacity:1" />
        <path
           id="path120"
           d="m 5976.38,24973.4 h 866.14 v 196.8 h -866.14 z"
           style="fill:#000000;fill-opacity:1;fill-rule:evenodd;stroke:#000000;stroke-width:0;stroke-linecap:round;stroke-linejoin:round;stroke-opacity:1" />
        <path
           id="path122"
           d="m 5976.38,25473.4 h 866.14 v 196.8 h -866.14 z"
           style="fill:#000000;fill-opacity:1;fill-rule:evenodd;stroke:#000000;stroke-width:0;stroke-linecap:round;stroke-linejoin:round;stroke-opacity:1" />
        <path
           id="path124"
           d="m 8458.38,25477.4 h 866.14 v 196.8 h -866.14 z"
           style="fill:#000000;fill-opacity:1;fill-rule:evenodd;stroke:#000000;stroke-width:0;stroke-linecap:round;stroke-linejoin:round;stroke-opacity:1" />
        <path
           id="path126"
           d="m 8458.38,24977.4 h 866.14 v 196.8 h -866.14 z"
           style="fill:#000000;fill-opacity:1;fill-rule:evenodd;stroke:#000000;stroke-width:0;stroke-linecap:round;stroke-linejoin:round;stroke-opacity:1" />
        <path
           id="path128"
           d="m 8458.38,24477.4 h 866.14 v 196.8 h -866.14 z"
           style="fill:#000000;fill-opacity:1;fill-rule:evenodd;stroke:#000000;stroke-width:0;stroke-linecap:round;stroke-linejoin:round;stroke-opacity:1" />
        <path
           id="path130"
           d="m 8458.38,23977.4 h 866.14 v 196.8 h -866.14 z"
           style="fill:#000000;fill-opacity:1;fill-rule:evenodd;stroke:#000000;stroke-width:0;stroke-linecap:round;stroke-linejoin:round;stroke-opacity:1" />
      </g>
      <g
         id="g134" />
      <g
         id="g144"
         style="fill:#000000;fill-opacity:1;stroke:#000000;stroke-width:0;stroke-linecap:round;stroke-linejoin:round;stroke-opacity:1">
        <path
           id="path136"
           d="M 7748.88,9766.73 V 10947.8 H 6567.77 V 9766.73 Z"
           style="fill:#000000;fill-opacity:1;fill-rule:evenodd;stroke:#000000;stroke-width:0;stroke-linecap:round;stroke-linejoin:round;stroke-opacity:1" />
        <path
           id="path138"
           d="M 3221.32,9766.73 V 10947.8 H 2040.21 V 9766.73 Z"
           style="fill:#000000;fill-opacity:1;fill-rule:evenodd;stroke:#000000;stroke-width:0;stroke-linecap:round;stroke-linejoin:round;stroke-opacity:1" />
        <path
           id="path140"
           d="m 3221.32,4845.47 v 1181.1 H 2040.21 v -1181.1 z"
           style="fill:#000000;fill-opacity:1;fill-rule:evenodd;stroke:#000000;stroke-width:0;stroke-linecap:round;stroke-linejoin:round;stroke-opacity:1" />
        <path
           id="path142"
           d="m 7748.88,4845.47 v 1181.1 H 6567.77 v -1181.1 z"
           style="fill:#000000;fill-opacity:1;fill-rule:evenodd;stroke:#000000;stroke-width:0;stroke-linecap:round;stroke-linejoin:round;stroke-opacity:1" />
      </g>
      <g
         id="g146" />
      <g
         id="g152"
         style="fill:#000000;fill-opacity:1;stroke:#000000;stroke-width:0;stroke-linecap:round;stroke-linejoin:round;stroke-opacity:1">
        <path
           id="path148"
           d="m 6655.17,23644.7 v -787.4 h 590.56 v 787.4 z"
           style="fill:#000000;fill-opacity:1;fill-rule:evenodd;stroke:#000000;stroke-width:0;stroke-linecap:round;stroke-linejoin:round;stroke-opacity:1" />
        <path
           id="path150"
           d="m 8055.17,23644.7 v -787.4 h 590.56 v 787.4 z"
           style="fill:#000000;fill-opacity:1;fill-rule:evenodd;stroke:#000000;stroke-width:0;stroke-linecap:round;stroke-linejoin:round;stroke-opacity:1" />
      </g>
      <g
         id="g154" />
      <g
         id="g156" />
      <g
         id="g158"
         style="fill:#000000;fill-opacity:1;stroke:#000000;stroke-width:0;stroke-linecap:round;stroke-linejoin:round;stroke-opacity:1" />
      <g
         id="g160"
         style="fill:#000000;fill-opacity:1;stroke:#000000;stroke-width:196.8500061;stroke-linecap:round;stroke-linejoin:round;stroke-opacity:1" />
      <g
         id="g246"
         style="fill:#000000;fill-opacity:0;stroke:#000000;stroke-width:196.8500061;stroke-linecap:round;stroke-linejoin:round;stroke-opacity:1">
        <path
           id="path162"
           d="M 11587,10062 H 9225" />
        <path
           id="path164"
           d="m 7453,10062 -295,295" />
        <path
           id="path166"
           d="M 9225,10062 H 7453" />
        <path
           id="path168"
           d="m 7158,11428 405,405" />
        <path
           id="path170"
           d="m 7158,10357 v 1071" />
        <path
           id="path172"
           d="M 12628,11103 11587,10062" />
        <path
           id="path174"
           d="m 9687,30231 2941,-2941" />
        <path
           id="path176"
           d="M 12628,27290 V 11103" />
        <path
           id="path178"
           d="m 8900,30231 h 787" />
        <path
           id="path180"
           d="m 8350,23250 v 307" />
        <path
           id="path182"
           d="m 8868,24075 h 23" />
        <path
           id="path184"
           d="m 8350,23557 518,518" />
        <path
           id="path186"
           d="m 2226,10762 404,-405" />
        <path
           id="path188"
           d="M 2226,11833 V 10762" />
        <path
           id="path190"
           d="m 3516,11724 110,109" />
        <path
           id="path192"
           d="m 3516,6321 v 5403" />
        <path
           id="path194"
           d="m 2630,5436 886,885" />
        <path
           id="path196"
           d="M 3626,12008 2226,13408" />
        <path
           id="path198"
           d="m 3626,11833 v 175" />
        <path
           id="path200"
           d="m 6205,23250 h 745" />
        <path
           id="path202"
           d="m 2226,13408 v 5863" />
        <path
           id="path204"
           d="m 6950,23534 -541,541" />
        <path
           id="path206"
           d="m 6950,23250 v 284" />
        <path
           id="path208"
           d="m 5156,22170 v 31" />
        <path
           id="path210"
           d="m 5650,21676 -494,494" />
        <path
           id="path212"
           d="m 2226,19271 2930,2930" />
        <path
           id="path214"
           d="m 5156,22201 1049,1049" />
        <path
           id="path216"
           d="M 3626,13408 H 6163" />
        <path
           id="path218"
           d="m 10406,24305 v -180" />
        <path
           id="path220"
           d="m 9635,25075 771,-770" />
        <path
           id="path222"
           d="m 8891,25075 h 744" />
        <path
           id="path224"
           d="m 10406,21963 681,-681" />
        <path
           id="path226"
           d="M 10406,24125 V 21963" />
        <path
           id="path228"
           d="M 12087,23844 V 21282" />
        <path
           id="path230"
           d="m 10406,25525 1681,-1681" />
        <path
           id="path232"
           d="m 8014,26452 877,-877" />
        <path
           id="path234"
           d="M 8014,30936 V 26452" />
        <path
           id="path236"
           d="m 8309,31231 -295,-295" />
        <path
           id="path238"
           d="M 8900,31231 H 8309" />
        <path
           id="path240"
           d="M 7039,25071 H 6409" />
        <path
           id="path242"
           d="m 7650,24460 -611,611" />
        <path
           id="path244"
           d="m 7650,21676 v 2784" />
      </g>
      <g
         id="g248" />
      <g
         id="g250"
         style="fill:#000000;fill-opacity:0;stroke:#000000;stroke-width:196.8500061;stroke-linecap:round;stroke-linejoin:round;stroke-opacity:1" />
      <g
         id="g260"
         style="fill:#000000;fill-opacity:1;stroke:#000000;stroke-width:196.8500061;stroke-linecap:round;stroke-linejoin:round;stroke-opacity:1">
        <path
           id="path252"
           d="m 11881.8,748.939 285,77.979 266.8,127.222 240,172.45 205.6,212.21 164.8,245.29 118.8,270.59 69.6,289.7 18.4,251.66 V 30717.7 l -27.4,307.9 -78,285.1 -127.2,266.7 -172.5,240 -212.2,205.7 -245.3,164.8 -270.6,118.8 -289.7,69.5 -251.6,18.5 H 3727.03 l -307.93,-27.5 -285.04,-78 -266.73,-127.2 -239.99,-172.4 -205.65,-212.3 -164.82,-245.2 -118.78,-270.6 -69.55,-289.7 -18.48,-251.7 v -101.3 h 521.65 v 225 l 43.88,220.5 86.06,207.8 124.95,187 159.03,159 187,125 207.78,86.1 220.58,43.8 h 224.9 l 220.58,-43.8 207.79,-86.1 186.99,-125 159.03,-159 124.95,-187 86.07,-207.8 43.87,-220.5 v -225 l -28.14,-141.4 h 686.16 l 5.71,57.8 16.88,55.7 27.42,51.3 36.9,45 44.96,36.9 13.54,7.2 -13.54,7.2 -44.96,36.9 -36.9,45 -27.42,51.3 -16.88,55.7 -5.71,57.8 v 492.2 l 5.71,57.8 16.88,55.7 27.42,51.3 36.9,45 44.96,36.9 51.3,27.4 55.65,16.9 57.89,5.7 H 6991 l 57.89,-5.7 55.65,-16.9 51.3,-27.4 44.96,-36.9 36.9,-45 27.42,-51.3 16.88,-55.7 5.71,-57.8 v -492.2 l -5.71,-57.8 -16.88,-55.7 -27.42,-51.3 -36.9,-45 -44.96,-36.9 -13.54,-7.2 13.54,-7.2 44.96,-36.9 36.9,-45 27.42,-51.3 16.88,-55.7 5.71,-57.8 -1.43,-113.2 -73.82,-73.8 h -752.95 v 7.8 h -118.12 v -7.8 h -752.95 l -73.82,73.8 -1.43,113.2 h -686.16 l -15.73,-79.1 -86.07,-207.8 -124.95,-187 -18.25,-18.3 h 931.16 l 1.43,113.2 73.82,73.8 h 752.95 v -408.4 h 118.12 v 408.4 h 752.95 l 73.82,-73.8 1.43,-113.2 -5.71,-57.8 -16.88,-55.7 -27.42,-51.3 -36.9,-45 -44.96,-36.9 -51.3,-27.4 -55.65,-16.9 -57.89,-5.7 -457.68,1.5 -73.81,73.8 h -118.12 l -73.81,-73.8 -457.68,-1.5 -57.89,5.7 -55.65,16.9 -51.3,27.4 -44.96,36.9 -36.9,45 -27.42,51.3 -16.88,55.7 -5.71,57.8 h -931.16 l -140.78,-140.7 -186.99,-125 -207.79,-86.1 -220.58,-43.8 h -224.9 l -220.58,43.8 -207.78,86.1 -187,125 -159.03,159 -124.95,187 -86.06,207.8 -43.88,220.5 H 2050.06 V 19652.2 l 2814.23,2814.3 12.33,15 15.03,12.3 1021.85,1021.9 12.33,15 15.02,12.3 44.93,36.9 68.4,36.6 74.21,22.5 77.18,7.6 19.34,-1.9 h 58.87 l -35.98,36 h -222.21 l -67.48,6.6 -64.89,19.7 -59.81,32 -52.42,43 -43.02,52.4 -31.96,59.8 -19.69,64.9 -6.64,67.5 v 98.4 l 6.64,67.5 19.69,64.9 26.21,49 -2.54,3.1 -27.42,51.3 -16.88,55.7 -5.7,57.9 v 196.8 l 5.7,57.9 16.88,55.7 20.06,37.5 -20.06,37.5 -16.88,55.7 -5.7,57.9 v 196.8 l 5.7,57.9 16.88,55.7 20.33,38 -20.33,38 -16.88,55.7 -5.7,57.9 v 196.8 l 5.7,57.9 16.88,55.7 27.42,51.3 36.9,44.9 44.96,36.9 51.3,27.4 55.65,16.9 57.89,5.7 h 866.14 l 57.89,-5.7 55.65,-16.9 51.3,-27.4 44.96,-36.9 36.9,-44.9 27.42,-51.3 16.88,-55.7 5.7,-57.9 v -196.8 l -1.95,-19.9 53.49,-16.2 68.4,-36.6 59.95,-49.2 12.33,-15 583.72,-583.7 15.03,-12.4 49.19,-59.9 36.56,-68.4 22.51,-74.2 5.7,-57.9 v 0 l 1.91,-19.3 -1.91,-19.3 v -501.1 l 11.02,1.1 110.14,-1 -3.64,37 1.43,24.6 73.82,73.8 -73.82,73.8 -1.43,24.6 5.71,57.9 16.88,55.7 20.33,38 -20.33,38 -16.88,55.7 -5.7,57.9 v 196.8 l 5.7,57.9 16.88,55.7 20.33,38 -20.33,38 -16.88,55.7 -5.7,57.9 v 196.8 l 5.7,57.9 16.88,55.7 20.33,38 -20.33,38 -16.88,55.7 -5.7,57.9 v 196.8 l 5.7,57.9 2.55,8.4 -420.02,420 -15.02,12.4 -49.2,59.9 -19.54,36.6 -17.02,31.8 -22.51,74.2 -7.6,77.2 1.9,19.4 v 4444.7 l -1.9,19.3 7.6,77.2 12,39.6 10.51,34.6 36.56,68.4 49.2,60 15.02,12.3 267.93,267.9 12.32,15 15.02,12.4 7.94,6.5 30.81,57.6 52.2,63.6 63.61,52.2 72.56,38.8 78.74,23.9 81.89,8.1 h 935.04 l 81.89,-8.1 78.74,-23.9 72.56,-38.8 63.61,-52.2 52.2,-63.6 38.78,-72.5 23.89,-78.8 8.07,-81.9 v -246 l -8.07,-81.9 -23.89,-78.8 -38.78,-72.5 -52.2,-63.6 -63.61,-52.2 -8.07,-4.3 11.45,-3.5 51.3,-27.4 44.96,-36.9 36.9,-45 11.4,-21.3 15.93,-1.6 1.5,-0.5 h 679.17 v 225 l 43.9,220.5 86.1,207.8 124.9,187 159,159 187,125 207.8,86.1 220.6,43.8 h 224.9 l 220.6,-43.8 207.8,-86.1 187,-125 159,-159 124.9,-187 86.1,-207.8 43.9,-220.5 v -225 l -43.9,-220.5 -86.1,-207.8 -124.9,-187 -159,-159 -187,-125 -207.8,-86.1 -220.6,-43.8 H 11475 l -220.6,43.8 -207.8,86.1 -187,125 -159,159 -124.9,187 -86.1,207.8 -43.9,220.5 h -679.17 l 72.71,-22 68.4,-36.6 59.95,-49.2 12.33,-15 2913.58,-2913.6 15,-12.3 49.2,-60 36.6,-68.4 22.5,-74.2 5.7,-57.8 v 0 l 1.9,-19.3 -1.9,-19.4 V 11122.7 l 1.9,-19.4 -1.9,-19.3 -5.7,-57.8 -22.5,-74.2 -36.6,-68.4 -49.2,-60 -15,-12.3 -615.6,-615.7 v -724.14 l -5.7,-57.89 -16.9,-55.66 -27.4,-51.29 -36.9,-44.96 -45,-36.9 -51.3,-27.42 -55.7,-16.89 -57.8,-5.7 h -787.4 l -57.9,5.7 -55.7,16.89 -51.3,27.42 -44.9,36.9 -36.9,44.96 -27.5,51.29 -16.8,55.66 -5.7,57.89 v 196.85 h -981.44 v -196.85 l -5.7,-57.89 -16.89,-55.66 -27.42,-51.29 -36.89,-44.96 -44.97,-36.9 -51.29,-27.42 -55.66,-16.89 -57.89,-5.7 h -787.4 l -57.88,5.7 -55.66,16.89 -51.3,27.42 -44.96,36.9 -36.9,44.96 -27.42,51.29 -16.88,55.66 -5.7,57.89 v 196.85 h -507.27 l -4.59,-15.12 -27.41,-51.3 -36.9,-44.96 -44.97,-36.9 -51.29,-27.42 -55.66,-16.88 -57.88,-5.7 H 6567.77 l -57.88,5.7 -55.66,16.88 -51.3,27.42 -44.96,36.9 -36.9,44.96 -27.42,51.3 -16.88,55.66 -5.7,57.88 v 1181.07 l 5.7,57.9 16.88,55.7 27.42,51.3 25.9,31.5 -51.05,0.5 -73.82,73.8 v 556.1 h 457.68 l 73.82,-73.8 1.43,-260.8 -5.7,-57.9 -16.89,-55.7 -27.42,-51.3 -25.09,-30.6 h 84.69 v 165.1 l -1.9,19.3 7.6,77.2 22.51,74.2 v 0 l 36.56,68.4 49.2,60 15.02,12.3 77.46,77.5 v 428.9 l 5.7,57.8 16.88,55.7 27.42,51.3 36.9,45 44.96,36.9 51.3,27.4 55.66,16.9 57.88,5.7 h 590.55 l 57.89,-5.7 55.66,-16.9 51.29,-27.4 44.97,-36.9 36.89,-45 27.42,-51.3 16.89,-55.7 5.7,-57.8 V 11440 l -5.7,-57.9 -16.89,-55.7 -27.42,-51.3 -36.89,-44.9 -44.97,-36.9 -51.29,-27.5 -16.93,-5.1 3.74,-3.1 36.9,-44.9 27.41,-51.3 16.89,-55.7 5.7,-57.9 v -492.1 h 489.27 v 196.9 l 5.7,57.8 16.88,55.7 27.42,51.3 36.9,45 44.96,36.9 51.3,27.4 55.66,16.9 57.88,5.7 h 787.4 l 57.89,-5.7 55.66,-16.9 51.29,-27.4 44.97,-36.9 36.89,-45 27.42,-51.3 16.89,-55.7 5.7,-57.8 v -196.9 h 981.44 v 196.9 l 5.7,57.8 16.8,55.7 27.5,51.3 36.9,45 44.9,36.9 51.3,27.4 55.7,16.9 57.9,5.7 h 724.1 l 317.2,317.1 v 9128.8 h -393.7 l -57.9,5.7 -55.6,16.9 -51.3,27.4 -45,36.9 -36.9,45 -27.4,51.3 -3.5,11.4 -4.3,-8 -52.2,-63.6 -63.6,-52.2 -72.6,-38.8 -78.7,-23.9 -81.9,-8.1 h -246.1 l -81.9,8.1 -78.7,23.9 -72.6,38.8 -63.6,52.2 -52.2,63.6 -38.8,72.5 -23.8,78.8 -8.1,81.9 v 453.5 l -227.2,227.2 -40.3,-113.7 -34,-63.5 -115.7,-35.9 -393.53,393.6 5.56,5.5 -83.51,83.6 -5.57,-5.6 -393.58,393.6 35.91,115.6 122.51,58.4 131.56,33.4 135.53,7.1 134.3,-19.6 127.92,-45.3 63.5,-34 4.6,-14.6 v 1279.5 l -57.93,5.7 -55.66,16.9 -51.3,27.4 -44.96,36.9 -36.9,45 -27.41,51.3 -16.89,55.6 -5.7,57.9 v 590.6 l 1.6,16.2 -96.33,96.4 v -56.3 l -5.7,-57.9 -16.88,-55.7 -20.33,-38 20.33,-38 16.88,-55.7 5.71,-57.9 -1.43,-24.6 -73.82,-73.8 73.82,-73.8 1.43,-24.6 -5.71,-57.9 -16.88,-55.7 -27.42,-51.3 -36.9,-44.9 -44.96,-36.9 -51.3,-27.5 -55.65,-16.8 -57.89,-5.7 -300.2,1.4 -73.81,73.8 v -73.8 h -11.76 l 3.68,-37.4 -1.43,-260.8 -73.82,-73.9 h -457.67 v 7.9 h -118.12 v -7.9 h -7.87 v -118.1 h 7.87 v -556.1 h 118.12 v 556.1 h 457.67 l 73.82,-73.8 1.43,-260.8 -5.7,-57.9 -16.89,-55.7 -27.41,-51.3 -36.9,-44.9 -44.96,-36.9 -51.3,-27.4 -55.66,-16.9 -57.88,-5.7 -162.41,1.4 -73.81,73.8 h -118.12 l -73.81,-73.8 -162.41,-1.4 -11.02,1.1 v -320 l 45.5,-30.4 95.96,-95.9 75.4,-112.9 51.94,-125.4 26.48,-133.1 v -35.9 h 619.45 l 19.51,134.3 45.35,127.9 33.95,63.6 115.66,35.9 393.58,-393.6 -393.58,-393.6 -115.66,35.9 -58.39,122.5 -33.36,131.6 -7.06,135.5 h -619.45 v -99.8 l -26.48,-133.1 -51.94,-125.4 -75.4,-112.8 -37.9,-37.9 h 1109.16 l 393.58,393.6 393.55,-393.6 -35.9,-115.7 -122.49,-58.4 -131.56,-33.3 -135.53,-7.1 -134.3,19.5 -127.92,45.4 -63.52,33.9 -35.91,115.7 H 8147.71 l -58.06,-58.1 -112.85,-75.4 -125.38,-51.9 -133.11,-26.5 h -135.72 l -133.11,26.5 -125.38,51.9 -112.85,75.4 -95.96,96 -75.4,112.8 -51.94,125.4 -26.48,133.1 v 135.7 l 26.48,133.1 51.94,125.4 75.4,112.9 95.96,95.9 45.5,30.4 v 320 l -11.02,-1.1 h -590.56 l -57.88,5.7 -55.66,16.9 -51.3,27.4 -44.96,36.9 -36.9,44.9 -27.41,51.3 -16.89,55.7 -4.79,48.6 -509.11,-509.1 1.15,-0.2 125.38,-52 112.85,-75.4 95.96,-95.9 75.4,-112.9 51.94,-125.4 26.48,-133.1 v -135.7 l -26.48,-133.1 -51.94,-125.4 -75.4,-112.8 -95.96,-96 -112.85,-75.4 -125.38,-51.9 -133.11,-26.5 h -135.72 l -133.11,26.5 -125.38,51.9 -112.85,75.4 -95.96,96 -75.4,112.8 -51.94,125.4 -0.23,1.2 -2367.98,-2368 v -2519.5 h 894.88 v 174.5 l 34.04,171.2 66.78,161.2 96.94,145.1 123.39,123.3 145.08,97 161.21,66.8 171.14,34 h 174.5 l 171.14,-34 161.21,-66.8 145.08,-97 123.39,-123.3 96.94,-145.1 66.78,-161.2 34.04,-171.2 v -174.5 l -15.43,-77.5 h 706.37 v 329.6 l 64.3,323.2 126.13,304.6 183.12,274 233.06,233.1 274.05,183.1 304.51,126.1 323.26,64.3 h 329.6 l 323.26,-64.3 304.51,-126.1 274.05,-183.1 233.06,-233.1 183.12,-274 126.13,-304.6 64.3,-323.2 v -329.6 l -64.3,-323.3 -126.13,-304.5 -183.12,-274 -233.06,-233.1 -274.05,-183.1 -304.51,-126.1 -323.26,-64.3 h -329.6 l -323.26,64.3 -304.51,126.1 -274.05,183.1 -233.06,233.1 -183.12,274 -126.13,304.5 -64.3,323.3 h -706.37 l -18.61,-93.6 -66.78,-161.2 -96.94,-145.1 -123.39,-123.4 -145.08,-96.9 -161.21,-66.8 -171.14,-34 h -174.5 l -171.14,34 -161.21,66.8 -145.08,96.9 -123.39,123.4 -96.94,145.1 -66.78,161.2 -34.04,171.1 h -894.88 v -2508 l 15.12,-4.6 51.3,-27.4 44.96,-36.9 36.9,-45 27.41,-51.3 16.89,-55.7 5.7,-57.8 v -428.9 l 216.04,-216.1 v 645 l 5.7,57.8 16.89,55.7 27.41,51.3 36.9,45 44.97,36.9 51.29,27.4 55.66,16.9 57.88,5.7 h 590.56 l 57.88,-5.7 55.66,-16.9 51.3,-27.4 44.96,-36.9 36.9,-45 27.41,-51.3 16.89,-55.7 5.7,-57.8 h 1353.05 l 5.7,57.8 16.88,55.7 27.42,51.3 36.9,45 44.96,36.9 51.3,27.4 55.66,16.9 57.88,5.7 h 590.55 l 57.89,-5.7 55.66,-16.9 51.29,-27.4 44.97,-36.9 36.89,-45 27.42,-51.3 16.89,-55.7 5.7,-57.8 h 216.04 l 5.7,57.8 16.88,55.7 27.42,51.3 36.9,45 44.96,36.9 51.3,27.4 55.66,16.9 57.88,5.7 162.4,-1.5 73.82,-73.8 v -556.1 h 118.11 v 556.1 l 73.82,73.8 162.4,1.5 57.89,-5.7 55.66,-16.9 51.29,-27.4 44.97,-36.9 36.89,-45 27.42,-51.3 16.89,-55.7 5.7,-57.8 -1.43,-260.9 -73.82,-73.8 H 7622.1 7503.99 7046.32 l -73.82,73.8 -1.43,260.9 h -216.04 v -787.4 h 216.04 l 1.43,260.8 73.82,73.8 h 457.67 v -556.1 h 118.11 v 556.1 h 457.68 l 73.82,-73.8 1.43,-260.8 -5.7,-57.9 -16.89,-55.7 -27.42,-51.3 -36.89,-44.9 -44.97,-36.9 -51.29,-27.5 -55.66,-16.8 -57.89,-5.7 -162.4,1.4 -73.82,73.8 h -118.11 l -73.82,-73.8 -162.4,-1.4 -57.88,5.7 -55.66,16.8 -51.3,27.5 -44.96,36.9 -36.9,44.9 -27.42,51.3 -16.88,55.7 -5.7,57.9 h -216.04 l -5.7,-57.9 -16.89,-55.7 -27.42,-51.3 -36.89,-44.9 -44.97,-36.9 -51.29,-27.5 -55.66,-16.8 -57.89,-5.7 h -590.55 l -57.88,5.7 -55.66,16.8 -51.3,27.5 -44.96,36.9 -36.9,44.9 -27.42,51.3 -16.88,55.7 -5.7,57.9 H 4218.02 l -5.7,-57.9 -16.89,-55.7 -27.41,-51.3 -36.9,-44.9 -44.96,-36.9 -51.3,-27.5 -55.66,-16.8 -57.88,-5.7 h -448.1 l 194,-194 h 254.1 l 57.88,-5.7 55.66,-16.9 51.3,-27.4 44.96,-36.9 36.9,-45 27.41,-51.3 16.89,-55.7 5.7,-57.8 h 1353.05 l 5.7,57.8 16.88,55.7 27.42,51.3 36.9,45 44.96,36.9 51.3,27.4 55.66,16.9 57.88,5.7 162.4,-1.5 73.82,-73.8 v -556.1 h 118.11 v 556.1 l 73.82,73.8 162.4,1.5 57.89,-5.7 55.66,-16.9 51.29,-27.4 44.97,-36.9 36.89,-45 27.42,-51.3 16.89,-55.7 5.7,-57.8 -1.43,-260.9 -73.82,-73.8 H 6222.1 6103.99 5646.32 l -73.82,73.8 -1.43,260.9 H 4218.02 V 11440 h 1353.05 l 1.43,260.8 73.82,73.8 h 457.67 v -556.1 l -73.82,-73.8 -162.4,-1.4 -57.88,5.7 -55.66,16.8 -51.3,27.5 -44.96,36.9 -36.9,44.9 -27.42,51.3 -16.88,55.7 -5.7,57.9 H 4218.02 l -5.7,-57.9 -16.89,-55.7 -27.41,-51.3 -36.9,-44.9 -44.96,-36.9 -51.3,-27.5 -55.66,-16.8 -57.88,-5.7 h -11.03 V 7828.8 h 5216.54 v 135.71 l 26.47,133.11 51.94,125.39 75.4,112.84 95.97,95.97 112.84,75.4 125.39,51.93 133.11,26.48 h 135.71 l 133.14,-26.48 125.4,-51.93 112.8,-75.4 96,-95.97 75.4,-112.84 51.9,-125.39 26.5,-133.11 V 7828.8 l -11.9,-59.58 h 464.6 v 254.87 l 8.6,86.76 33.8,111.32 54.8,102.59 73.8,89.92 89.9,73.8 102.6,54.84 111.3,33.76 115.8,11.41 115.8,-11.41 111.3,-33.76 102.6,-54.84 89.9,-73.8 73.8,-89.92 54.8,-102.59 33.8,-111.32 8.5,-86.76 v -254.87 l -8.5,-86.76 -33.8,-111.32 -54.8,-102.59 -73.8,-89.92 -89.9,-73.8 -102.6,-54.84 -111.3,-33.77 -115.8,-11.4 -115.8,11.4 -111.3,33.77 -102.6,54.84 -89.9,73.8 -73.8,89.92 -54.8,102.59 -33.8,111.32 -8.6,86.76 h -464.6 l -14.6,-73.53 -51.9,-125.39 -75.4,-112.84 -96,-95.97 -112.8,-75.4 -125.4,-51.94 -133.14,-26.47 h -135.71 l -133.11,26.47 -125.39,51.94 -112.84,75.4 -95.97,95.97 -75.4,112.84 -51.94,125.39 -26.47,133.11 H 3910.29 V 6341.19 l 1.91,-19.34 -7.6,-77.18 -22.52,-74.21 -36.55,-68.4 -49.2,-59.94 -15.03,-12.33 -3.21,-3.22 h 2492.98 l 5.7,57.89 16.88,55.66 27.42,51.29 36.9,44.97 44.96,36.9 51.3,27.41 55.66,16.89 57.88,5.7 457.68,-1.43 73.82,-73.82 v -752.95 h 118.11 v 752.95 l 73.82,73.82 457.68,1.43 57.88,-5.7 55.66,-16.89 51.3,-27.41 44.96,-36.9 36.9,-44.97 27.41,-51.29 16.89,-55.66 5.7,-57.89 -1.43,-457.67 -73.82,-73.82 h -752.95 -118.11 -752.95 l -73.82,73.82 -1.43,457.67 H 3778.09 L 3518.02,5766.5 v -921.03 h 2753.05 l 1.43,457.68 73.82,73.82 h 752.95 v -752.95 h 118.11 v 752.95 h 752.95 l 73.82,-73.82 0.51,-162.4 h 490.19 v 1181.1 l 5.7,57.88 16.88,55.66 27.42,51.3 36.9,44.96 44.96,36.9 51.3,27.42 55.66,16.88 57.88,5.7 h 787.4 l 57.89,-5.7 55.66,-16.88 51.29,-27.42 44.97,-36.9 36.89,-44.96 27.42,-51.3 16.89,-55.66 5.7,-57.88 h 981.44 l 5.7,57.88 16.8,55.66 27.5,51.3 36.9,44.96 44.9,36.9 51.3,27.42 55.7,16.88 57.9,5.7 260.8,-1.42 73.8,-73.82 v -752.96 h 118.1 v 752.96 l 73.8,73.82 260.9,1.42 57.8,-5.7 55.7,-16.88 51.3,-27.42 45,-36.9 36.9,-44.96 27.4,-51.3 16.9,-55.66 5.7,-57.88 -1.5,-457.68 -73.8,-73.82 h -556.1 -118.1 -556.1 l -73.8,73.82 -1.4,457.68 h -981.44 v -1181.1 h 981.44 l 1.4,457.68 73.8,73.81 h 556.1 v -752.95 h 118.1 v 752.95 h 556.1 l 73.8,-73.81 1.5,-457.68 -5.7,-57.89 -16.9,-55.66 -27.4,-51.29 -36.9,-44.96 -45,-36.9 -51.3,-27.42 -55.7,-16.89 -57.8,-5.7 -260.9,1.43 -73.8,73.82 h -118.1 l -73.8,-73.82 -260.8,-1.43 -57.9,5.7 -55.7,16.89 -51.3,27.42 -44.9,36.9 -36.9,44.96 -27.5,51.29 -16.8,55.66 -5.7,57.89 h -981.44 l -5.7,-57.89 -16.89,-55.66 -27.42,-51.29 -36.89,-44.96 -44.97,-36.9 -51.29,-27.42 -55.66,-16.88 -57.89,-5.71 h -787.4 l -57.88,5.71 -55.66,16.88 -51.3,27.42 -44.96,36.9 -36.9,44.96 -27.42,51.29 -16.88,55.66 -5.7,57.89 h -490.19 l 0.92,-295.28 -5.7,-57.88 -16.89,-55.66 -27.41,-51.3 -36.9,-44.96 -44.96,-36.9 -51.3,-27.42 -55.66,-16.88 -57.88,-5.7 -457.68,1.43 -73.82,73.82 h -118.11 l -73.82,-73.82 -457.68,-1.43 -57.88,5.7 -55.66,16.88 -51.3,27.42 -44.96,36.9 -36.9,44.96 -27.42,51.3 -16.88,55.66 -5.7,57.88 H 3518.02 l -5.7,-57.88 -16.89,-55.66 -27.41,-51.3 -36.9,-44.96 -44.96,-36.9 -51.3,-27.42 -55.66,-16.88 -57.88,-5.7 H 2050.06 V 2398.43 l 11.24,-126.04 h 510.41 v 224.9 l 43.88,220.58 86.06,207.79 124.95,186.99 159.03,159.03 187,124.95 207.78,86.07 220.58,43.87 h 224.9 l 220.58,-43.87 207.79,-86.07 186.99,-124.95 159.03,-159.03 124.95,-186.99 86.07,-207.79 43.87,-220.58 v -224.9 h 5590.53 v 224.9 l 43.9,220.58 86.1,207.79 124.9,186.99 159,159.03 187,124.95 207.8,86.07 220.6,43.87 h 224.9 l 220.6,-43.87 207.8,-86.07 187,-124.95 159,-159.03 124.9,-186.99 86.1,-207.79 43.9,-220.58 v -224.9 l -43.9,-220.58 -86.1,-207.78 -124.9,-187 -159,-159.03 -187,-124.95 -207.8,-86.06 -220.6,-43.88 H 11475 l -220.6,43.88 -207.8,86.06 -187,124.95 -159,159.03 -124.9,187 -86.1,207.78 -43.9,220.58 H 4855.17 l -43.87,-220.58 -86.07,-207.78 -124.95,-187 -159.03,-159.03 -186.99,-124.95 -207.79,-86.06 -220.58,-43.88 h -224.9 l -220.58,43.88 -207.78,86.06 -187,124.95 -159.03,159.03 -124.95,187 -86.06,207.78 -43.88,220.58 H 2061.3 l 16.24,-181.89 77.98,-285.04 127.22,-266.73 172.45,-239.99 212.21,-205.65 245.29,-164.821 270.59,-118.781 289.69,-69.551 251.66,-18.48 h 7849.27 z"
           style="fill:#000000;fill-opacity:1;fill-rule:evenodd;stroke:#000000;stroke-width:196.8500061;stroke-linecap:round;stroke-linejoin:round;stroke-opacity:1" />
        <path
           id="path254"
           d="m 8950.51,24142.7 h -118.12 v -133.8 h 118.12 z"
           style="fill:#000000;fill-opacity:1;fill-rule:evenodd;stroke:#000000;stroke-width:196.8500061;stroke-linecap:round;stroke-linejoin:round;stroke-opacity:1" />
        <path
           id="path256"
           d="m 2763.64,11243.1 345.81,1.1 -25.39,30.9 -27.41,51.3 -16.89,55.7 -5.7,57.9 v 603.7 l -219.57,219.5 3.53,-35.8 -1.43,-260.9 -73.82,-73.8 H 2285.1 v 556.1 l 73.81,73.8 162.41,1.5 35.88,-3.6 -197.53,197.6 H 2050.06 V 12523 l 43.11,-0.4 73.82,-73.8 v -556.1 h -7.88 v -118.1 h 7.88 v -7.9 h 118.11 v 7.9 h 457.67 l 73.82,-73.8 1.43,-260.8 -5.7,-57.9 -16.88,-55.7 -27.42,-51.3 -36.9,-44.9 -41.3,-33.9 v -27 z"
           style="fill:#000000;fill-opacity:1;fill-rule:evenodd;stroke:#000000;stroke-width:196.8500061;stroke-linecap:round;stroke-linejoin:round;stroke-opacity:1" />
        <path
           id="path258"
           d="m 3122.89,6484.93 v 2985.41 l -359.25,1.12 -73.82,73.82 v 752.92 h 7.87 v 118.1 h -7.87 v 7.9 h -118.11 v -7.9 h -7.87 v -118.1 h 7.87 v -752.92 l -73.82,-73.82 -447.83,-1.4 V 6323.28 h 911.18 z"
           style="fill:#000000;fill-opacity:1;fill-rule:evenodd;stroke:#000000;stroke-width:196.8500061;stroke-linecap:round;stroke-linejoin:round;stroke-opacity:1" />
      </g>
    </g>
  </g>
</svg>
