EESchema Schematic File Version 4
EELAYER 30 0
EELAYER END
$Descr A4 11693 8268
encoding utf-8
Sheet 1 1
Title ""
Date ""
Rev ""
Comp ""
Comment1 ""
Comment2 ""
Comment3 ""
Comment4 ""
$EndDescr
$Comp
L MCU_Microchip_SAMD:ATSAMD11C14A-SS U2
U 1 1 5EB9AA3C
P 4400 2850
F 0 "U2" H 4400 3731 50  0000 C CNN
F 1 "ATSAMD11C14A-SS" H 4400 3640 50  0000 C CNN
F 2 "Package_SO:SOIC-14_3.9x8.7mm_P1.27mm" H 4400 1800 50  0001 C CNN
F 3 "http://ww1.microchip.com/downloads/en/DeviceDoc/Atmel-42363-SAM-D11_Datasheet.pdf" H 4400 2150 50  0001 C CNN
	1    4400 2850
	1    0    0    -1  
$EndComp
$Comp
L Regulator_Linear:LM3480-3.3 U4
U 1 1 5EB9B1F5
P 5200 6100
F 0 "U4" H 5200 6342 50  0000 C CNN
F 1 "LM3480-3.3" H 5200 6251 50  0000 C CNN
F 2 "Package_TO_SOT_SMD:SOT-23" H 5200 6325 50  0001 C CIN
F 3 "http://www.ti.com/lit/ds/symlink/lm3480.pdf" H 5200 6100 50  0001 C CNN
	1    5200 6100
	1    0    0    -1  
$EndComp
$Comp
L fab:JACK2.1MM J4
U 1 1 5EB9BBB3
P 1550 6200
F 0 "J4" V 1550 6378 45  0000 L CNN
F 1 "JACK2.1MM" H 1550 6200 45  0001 L BNN
F 2 "fancontrol:CONN_BARREL_2-1mm" H 1580 6350 20  0001 C CNN
F 3 "" H 1550 6200 50  0001 C CNN
	1    1550 6200
	0    1    1    0   
$EndComp
$Comp
L fab:6MM_SWITCH6MM_SWITCH S1
U 1 1 5EB9CC32
P 5400 2450
F 0 "S1" V 5071 2450 45  0000 C CNN
F 1 "6MM_SWITCH6MM_SWITCH" V 5155 2450 45  0000 C CNN
F 2 "fab:fab-6MM_SWITCH" H 5430 2600 20  0001 C CNN
F 3 "" H 5400 2450 50  0001 C CNN
	1    5400 2450
	0    1    1    0   
$EndComp
$Comp
L fancontrol:Sensor_DP_NPA-730B-05WD U1
U 1 1 5EBA0131
P 6500 2150
F 0 "U1" H 6500 2715 50  0000 C CNN
F 1 "Sensor_DP_NPA-730B-05WD" H 6500 2624 50  0000 C CNN
F 2 "Package_SO:SOIC-14W_7.5x9mm_P1.27mm" H 6500 2150 50  0001 C CNN
F 3 "" H 6500 2150 50  0001 C CNN
	1    6500 2150
	1    0    0    -1  
$EndComp
$Comp
L fancontrol:BUCK_VXO7805-500-M-TR U3
U 1 1 5EBA0AF1
P 2850 6000
F 0 "U3" H 2875 6365 50  0000 C CNN
F 1 "BUCK_VXO7805-500-M-TR" H 2875 6274 50  0000 C CNN
F 2 "fancontrol:BUCK_VXO7805-500-M-TR" H 2850 6000 50  0001 C CNN
F 3 "" H 2850 6000 50  0001 C CNN
	1    2850 6000
	1    0    0    -1  
$EndComp
$Comp
L power:+24V #PWR0101
U 1 1 5EBB0F78
P 1650 5750
F 0 "#PWR0101" H 1650 5600 50  0001 C CNN
F 1 "+24V" H 1665 5923 50  0000 C CNN
F 2 "" H 1650 5750 50  0001 C CNN
F 3 "" H 1650 5750 50  0001 C CNN
	1    1650 5750
	1    0    0    -1  
$EndComp
Wire Wire Line
	1650 5750 1650 5900
$Comp
L Device:C C4
U 1 1 5EBB5547
P 2050 6200
F 0 "C4" H 2165 6246 50  0000 L CNN
F 1 "10u" H 2165 6155 50  0000 L CNN
F 2 "fab:fab-C1206FAB" H 2088 6050 50  0001 C CNN
F 3 "~" H 2050 6200 50  0001 C CNN
	1    2050 6200
	1    0    0    -1  
$EndComp
Wire Wire Line
	1650 5900 2050 5900
Wire Wire Line
	2050 5900 2050 6050
Connection ~ 1650 5900
Wire Wire Line
	1650 5900 1650 6000
Wire Wire Line
	2050 5900 2500 5900
Connection ~ 2050 5900
Wire Wire Line
	2500 6100 2400 6100
Wire Wire Line
	2400 6100 2400 6600
Wire Wire Line
	2400 6600 2050 6600
Wire Wire Line
	2050 6600 2050 6350
$Comp
L power:GND #PWR0102
U 1 1 5EBB8203
P 2400 6850
F 0 "#PWR0102" H 2400 6600 50  0001 C CNN
F 1 "GND" H 2405 6677 50  0000 C CNN
F 2 "" H 2400 6850 50  0001 C CNN
F 3 "" H 2400 6850 50  0001 C CNN
	1    2400 6850
	1    0    0    -1  
$EndComp
Wire Wire Line
	2400 6850 2400 6600
Connection ~ 2400 6600
Wire Wire Line
	2050 6600 1450 6600
Wire Wire Line
	1450 6600 1450 6400
Connection ~ 2050 6600
Wire Wire Line
	3250 5900 3450 5900
Wire Wire Line
	3450 5900 3450 6700
$Comp
L power:GND #PWR0103
U 1 1 5EBBB40E
P 3450 6850
F 0 "#PWR0103" H 3450 6600 50  0001 C CNN
F 1 "GND" H 3455 6677 50  0000 C CNN
F 2 "" H 3450 6850 50  0001 C CNN
F 3 "" H 3450 6850 50  0001 C CNN
	1    3450 6850
	1    0    0    -1  
$EndComp
$Comp
L Device:C C5
U 1 1 5EBBF001
P 3750 6350
F 0 "C5" H 3865 6396 50  0000 L CNN
F 1 "22u" H 3865 6305 50  0000 L CNN
F 2 "fab:fab-C1206FAB" H 3788 6200 50  0001 C CNN
F 3 "~" H 3750 6350 50  0001 C CNN
	1    3750 6350
	1    0    0    -1  
$EndComp
Wire Wire Line
	3750 6200 3750 6100
Wire Wire Line
	3750 6100 3250 6100
Wire Wire Line
	3750 6500 3750 6700
Wire Wire Line
	3750 6700 3450 6700
Connection ~ 3450 6700
Wire Wire Line
	3450 6700 3450 6850
Wire Wire Line
	5200 6400 5200 6700
$Comp
L power:+3V3 #PWR0104
U 1 1 5EBC4088
P 5750 5750
F 0 "#PWR0104" H 5750 5600 50  0001 C CNN
F 1 "+3V3" H 5765 5923 50  0000 C CNN
F 2 "" H 5750 5750 50  0001 C CNN
F 3 "" H 5750 5750 50  0001 C CNN
	1    5750 5750
	1    0    0    -1  
$EndComp
Wire Wire Line
	5750 5750 5750 6100
Wire Wire Line
	5750 6100 5500 6100
$Comp
L Device:C C6
U 1 1 5EBC0023
P 4700 6350
F 0 "C6" H 4815 6396 50  0000 L CNN
F 1 "1u" H 4815 6305 50  0000 L CNN
F 2 "fab:fab-C1206FAB" H 4738 6200 50  0001 C CNN
F 3 "~" H 4700 6350 50  0001 C CNN
	1    4700 6350
	1    0    0    -1  
$EndComp
Wire Wire Line
	4350 6100 4700 6100
Wire Wire Line
	4700 6200 4700 6100
Connection ~ 4700 6100
Wire Wire Line
	4700 6100 4900 6100
Wire Wire Line
	4700 6500 4700 6700
Wire Wire Line
	4700 6700 5200 6700
$Comp
L Device:C C7
U 1 1 5EBD4786
P 5750 6350
F 0 "C7" H 5865 6396 50  0000 L CNN
F 1 "1u" H 5865 6305 50  0000 L CNN
F 2 "fab:fab-C1206FAB" H 5788 6200 50  0001 C CNN
F 3 "~" H 5750 6350 50  0001 C CNN
	1    5750 6350
	1    0    0    -1  
$EndComp
Wire Wire Line
	5750 6100 5750 6200
Connection ~ 5750 6100
Wire Wire Line
	5750 6500 5750 6700
Wire Wire Line
	5750 6700 5200 6700
Connection ~ 5200 6700
$Comp
L power:GND #PWR0105
U 1 1 5EBD69F2
P 4400 3850
F 0 "#PWR0105" H 4400 3600 50  0001 C CNN
F 1 "GND" H 4405 3677 50  0000 C CNN
F 2 "" H 4400 3850 50  0001 C CNN
F 3 "" H 4400 3850 50  0001 C CNN
	1    4400 3850
	1    0    0    -1  
$EndComp
Wire Wire Line
	4400 3850 4400 3700
$Comp
L power:+3V3 #PWR0106
U 1 1 5EBD9994
P 4400 1800
F 0 "#PWR0106" H 4400 1650 50  0001 C CNN
F 1 "+3V3" H 4415 1973 50  0000 C CNN
F 2 "" H 4400 1800 50  0001 C CNN
F 3 "" H 4400 1800 50  0001 C CNN
	1    4400 1800
	1    0    0    -1  
$EndComp
Wire Wire Line
	4400 1800 4400 2150
$Comp
L Device:C C3
U 1 1 5EBDA3EA
P 3900 3700
F 0 "C3" V 4152 3700 50  0000 C CNN
F 1 "0u1" V 4061 3700 50  0000 C CNN
F 2 "fab:fab-C1206FAB" H 3938 3550 50  0001 C CNN
F 3 "~" H 3900 3700 50  0001 C CNN
	1    3900 3700
	0    -1   -1   0   
$EndComp
Wire Wire Line
	4050 3700 4400 3700
Connection ~ 4400 3700
Wire Wire Line
	4400 3700 4400 3550
$Comp
L power:+3V3 #PWR0107
U 1 1 5EBDB75C
P 3550 3500
F 0 "#PWR0107" H 3550 3350 50  0001 C CNN
F 1 "+3V3" H 3565 3673 50  0000 C CNN
F 2 "" H 3550 3500 50  0001 C CNN
F 3 "" H 3550 3500 50  0001 C CNN
	1    3550 3500
	1    0    0    -1  
$EndComp
Wire Wire Line
	3550 3500 3550 3700
Wire Wire Line
	3550 3700 3750 3700
$Comp
L Device:R R3
U 1 1 5EBDE900
P 3550 2250
F 0 "R3" H 3620 2296 50  0000 L CNN
F 1 "10k" H 3620 2205 50  0000 L CNN
F 2 "fab:fab-R1206FAB" V 3480 2250 50  0001 C CNN
F 3 "~" H 3550 2250 50  0001 C CNN
	1    3550 2250
	1    0    0    -1  
$EndComp
Wire Wire Line
	3550 2400 3550 2550
$Comp
L power:+3V3 #PWR0108
U 1 1 5EBDF65D
P 3550 1800
F 0 "#PWR0108" H 3550 1650 50  0001 C CNN
F 1 "+3V3" H 3565 1973 50  0000 C CNN
F 2 "" H 3550 1800 50  0001 C CNN
F 3 "" H 3550 1800 50  0001 C CNN
	1    3550 1800
	1    0    0    -1  
$EndComp
Wire Wire Line
	3550 1800 3550 2100
Connection ~ 3550 2550
Wire Wire Line
	3550 2550 3900 2550
Wire Wire Line
	2400 2550 2600 2550
$Comp
L Device:C C2
U 1 1 5EBE37E1
P 2750 2550
F 0 "C2" V 3002 2550 50  0000 C CNN
F 1 "0u1" V 2911 2550 50  0000 C CNN
F 2 "fab:fab-C1206FAB" H 2788 2400 50  0001 C CNN
F 3 "~" H 2750 2550 50  0001 C CNN
	1    2750 2550
	0    -1   -1   0   
$EndComp
$Comp
L Connector_Generic:Conn_02x05_Odd_Even J1
U 1 1 5EBEB775
P 2700 3300
F 0 "J1" H 2750 3717 50  0000 C CNN
F 1 "Conn_02x05_Odd_Even" H 2750 3626 50  0000 C CNN
F 2 "Connector_PinHeader_1.27mm:PinHeader_2x05_P1.27mm_Vertical_SMD" H 2700 3300 50  0001 C CNN
F 3 "~" H 2700 3300 50  0001 C CNN
	1    2700 3300
	1    0    0    -1  
$EndComp
Wire Wire Line
	2500 3100 2150 3100
Wire Wire Line
	2150 3100 2150 1800
$Comp
L power:+3V3 #PWR0109
U 1 1 5EBF228F
P 2150 1800
F 0 "#PWR0109" H 2150 1650 50  0001 C CNN
F 1 "+3V3" H 2165 1973 50  0000 C CNN
F 2 "" H 2150 1800 50  0001 C CNN
F 3 "" H 2150 1800 50  0001 C CNN
	1    2150 1800
	1    0    0    -1  
$EndComp
Wire Wire Line
	2400 2550 2400 3200
Wire Wire Line
	2500 3200 2400 3200
Connection ~ 2400 3200
Wire Wire Line
	2400 3200 2400 3300
Wire Wire Line
	2500 3300 2400 3300
Connection ~ 2400 3300
Wire Wire Line
	2500 3500 2400 3500
Wire Wire Line
	2400 3300 2400 3500
Connection ~ 2400 3500
Wire Wire Line
	2400 3500 2400 3850
$Comp
L power:GND #PWR0110
U 1 1 5EBF651D
P 2400 3850
F 0 "#PWR0110" H 2400 3600 50  0001 C CNN
F 1 "GND" H 2405 3677 50  0000 C CNN
F 2 "" H 2400 3850 50  0001 C CNN
F 3 "" H 2400 3850 50  0001 C CNN
	1    2400 3850
	1    0    0    -1  
$EndComp
$Comp
L Connector:USB_OTG J3
U 1 1 5EBF8780
P 4600 4650
F 0 "J3" H 4657 5117 50  0000 C CNN
F 1 "USB_OTG" H 4657 5026 50  0000 C CNN
F 2 "Connector_USB:USB_Mini-B_Lumberg_2486_01_Horizontal" H 4750 4600 50  0001 C CNN
F 3 " ~" H 4750 4600 50  0001 C CNN
	1    4600 4650
	1    0    0    -1  
$EndComp
Wire Wire Line
	4900 4650 5000 4650
Wire Wire Line
	5000 4650 5000 3150
Wire Wire Line
	5000 3150 4900 3150
Wire Wire Line
	5100 3050 5100 4750
Wire Wire Line
	4900 4750 5100 4750
Wire Wire Line
	4900 3050 5100 3050
$Comp
L power:GND #PWR0111
U 1 1 5EC04E88
P 4600 5250
F 0 "#PWR0111" H 4600 5000 50  0001 C CNN
F 1 "GND" H 4605 5077 50  0000 C CNN
F 2 "" H 4600 5250 50  0001 C CNN
F 3 "" H 4600 5250 50  0001 C CNN
	1    4600 5250
	1    0    0    -1  
$EndComp
Wire Wire Line
	4600 5250 4600 5150
Wire Wire Line
	4600 5150 4500 5150
Wire Wire Line
	4500 5150 4500 5050
Connection ~ 4600 5150
Wire Wire Line
	4600 5150 4600 5050
Wire Wire Line
	4900 2850 6950 2850
Wire Wire Line
	6950 2850 6950 2450
Wire Wire Line
	6950 2450 6850 2450
Wire Wire Line
	7050 2950 7050 2350
Wire Wire Line
	7050 2350 6850 2350
$Comp
L Device:R R1
U 1 1 5EC14592
P 7200 2050
F 0 "R1" H 7270 2096 50  0000 L CNN
F 1 "4k7" H 7270 2005 50  0000 L CNN
F 2 "fab:fab-R1206FAB" V 7130 2050 50  0001 C CNN
F 3 "~" H 7200 2050 50  0001 C CNN
	1    7200 2050
	1    0    0    -1  
$EndComp
Wire Wire Line
	7200 2200 7200 2350
Wire Wire Line
	7200 2350 7050 2350
Connection ~ 7050 2350
$Comp
L Device:R R2
U 1 1 5EC1696A
P 7500 2050
F 0 "R2" H 7570 2096 50  0000 L CNN
F 1 "4k7" H 7570 2005 50  0000 L CNN
F 2 "fab:fab-R1206FAB" V 7430 2050 50  0001 C CNN
F 3 "~" H 7500 2050 50  0001 C CNN
	1    7500 2050
	1    0    0    -1  
$EndComp
Wire Wire Line
	7500 2200 7500 2450
Wire Wire Line
	7500 2450 6950 2450
Connection ~ 6950 2450
$Comp
L power:+3V3 #PWR0112
U 1 1 5EC18C26
P 7500 1250
F 0 "#PWR0112" H 7500 1100 50  0001 C CNN
F 1 "+3V3" H 7515 1423 50  0000 C CNN
F 2 "" H 7500 1250 50  0001 C CNN
F 3 "" H 7500 1250 50  0001 C CNN
	1    7500 1250
	1    0    0    -1  
$EndComp
Wire Wire Line
	7500 1250 7500 1600
Wire Wire Line
	7200 1900 7200 1600
Wire Wire Line
	7200 1600 7500 1600
Connection ~ 7500 1600
Wire Wire Line
	7500 1600 7500 1900
$Comp
L power:GND #PWR0113
U 1 1 5EC1E08D
P 6000 3250
F 0 "#PWR0113" H 6000 3000 50  0001 C CNN
F 1 "GND" H 6005 3077 50  0000 C CNN
F 2 "" H 6000 3250 50  0001 C CNN
F 3 "" H 6000 3250 50  0001 C CNN
	1    6000 3250
	1    0    0    -1  
$EndComp
Wire Wire Line
	6000 2350 6150 2350
Wire Wire Line
	6150 2450 5900 2450
Wire Wire Line
	5900 2450 5900 1500
$Comp
L power:+3V3 #PWR0114
U 1 1 5EC25300
P 5900 1250
F 0 "#PWR0114" H 5900 1100 50  0001 C CNN
F 1 "+3V3" H 5915 1423 50  0000 C CNN
F 2 "" H 5900 1250 50  0001 C CNN
F 3 "" H 5900 1250 50  0001 C CNN
	1    5900 1250
	1    0    0    -1  
$EndComp
$Comp
L Device:C C1
U 1 1 5EC258F4
P 5550 1500
F 0 "C1" V 5802 1500 50  0000 C CNN
F 1 "0u1" V 5711 1500 50  0000 C CNN
F 2 "fab:fab-C1206FAB" H 5588 1350 50  0001 C CNN
F 3 "~" H 5550 1500 50  0001 C CNN
	1    5550 1500
	0    -1   -1   0   
$EndComp
Wire Wire Line
	5700 1500 5900 1500
Connection ~ 5900 1500
Wire Wire Line
	5900 1500 5900 1250
$Comp
L power:GND #PWR0115
U 1 1 5EC28393
P 5250 1700
F 0 "#PWR0115" H 5250 1450 50  0001 C CNN
F 1 "GND" H 5255 1527 50  0000 C CNN
F 2 "" H 5250 1700 50  0001 C CNN
F 3 "" H 5250 1700 50  0001 C CNN
	1    5250 1700
	1    0    0    -1  
$EndComp
Wire Wire Line
	5250 1700 5250 1500
Wire Wire Line
	5250 1500 5400 1500
$Comp
L power:+24V #PWR0116
U 1 1 5EC3AB51
P 5400 3350
F 0 "#PWR0116" H 5400 3200 50  0001 C CNN
F 1 "+24V" H 5415 3523 50  0000 C CNN
F 2 "" H 5400 3350 50  0001 C CNN
F 3 "" H 5400 3350 50  0001 C CNN
	1    5400 3350
	1    0    0    -1  
$EndComp
Wire Wire Line
	5400 3350 5400 3600
Wire Wire Line
	5400 3600 5650 3600
$Comp
L power:GND #PWR0117
U 1 1 5EC3D953
P 5400 4000
F 0 "#PWR0117" H 5400 3750 50  0001 C CNN
F 1 "GND" H 5405 3827 50  0000 C CNN
F 2 "" H 5400 4000 50  0001 C CNN
F 3 "" H 5400 4000 50  0001 C CNN
	1    5400 4000
	1    0    0    -1  
$EndComp
Wire Wire Line
	6000 2350 6000 2550
Wire Wire Line
	4900 2550 5200 2550
Wire Wire Line
	5600 2550 6000 2550
Connection ~ 6000 2550
Wire Wire Line
	6000 2550 6000 3250
Wire Wire Line
	3000 3100 3100 3100
Wire Wire Line
	3100 3100 3100 2750
Wire Wire Line
	3100 2750 3900 2750
Wire Wire Line
	2900 2550 3300 2550
Wire Wire Line
	3300 3500 3300 2550
Wire Wire Line
	3000 3500 3300 3500
Connection ~ 3300 2550
Wire Wire Line
	3300 2550 3550 2550
Wire Wire Line
	3200 2850 3200 3200
Wire Wire Line
	3200 3200 3000 3200
Wire Wire Line
	3200 2850 3900 2850
Text Label 3800 3050 2    50   ~ 0
LED_R
Wire Wire Line
	3800 3050 3900 3050
Text Label 3800 3150 2    50   ~ 0
LED_G
Wire Wire Line
	3800 3150 3900 3150
Wire Wire Line
	5650 3500 5300 3500
Wire Wire Line
	4900 2950 7050 2950
Wire Wire Line
	5300 3500 5300 2650
Wire Wire Line
	4900 2650 5300 2650
Text Label 5000 2750 0    50   ~ 0
LED_B
Wire Wire Line
	5000 2750 4900 2750
$Comp
L Device:LED_RGBA D1
U 1 1 5EC805E6
P 7900 3600
F 0 "D1" H 7900 4097 50  0000 C CNN
F 1 "LED_RGBA" H 7900 4006 50  0000 C CNN
F 2 "fab:fab-P-LCC-4-3" H 7900 3550 50  0001 C CNN
F 3 "~" H 7900 3550 50  0001 C CNN
	1    7900 3600
	1    0    0    -1  
$EndComp
$Comp
L Device:R R4
U 1 1 5EC8158C
P 7450 3400
F 0 "R4" V 7350 3400 50  0000 C CNN
F 1 "100" V 7450 3400 50  0000 C CNN
F 2 "fab:fab-R1206FAB" V 7380 3400 50  0001 C CNN
F 3 "~" H 7450 3400 50  0001 C CNN
	1    7450 3400
	0    1    1    0   
$EndComp
$Comp
L Device:R R5
U 1 1 5EC82495
P 7450 3600
F 0 "R5" V 7350 3600 50  0000 C CNN
F 1 "100" V 7450 3600 50  0000 C CNN
F 2 "fab:fab-R1206FAB" V 7380 3600 50  0001 C CNN
F 3 "~" H 7450 3600 50  0001 C CNN
	1    7450 3600
	0    1    1    0   
$EndComp
$Comp
L Device:R R6
U 1 1 5EC8272D
P 7450 3800
F 0 "R6" V 7350 3800 50  0000 C CNN
F 1 "100" V 7450 3800 50  0000 C CNN
F 2 "fab:fab-R1206FAB" V 7380 3800 50  0001 C CNN
F 3 "~" H 7450 3800 50  0001 C CNN
	1    7450 3800
	0    1    1    0   
$EndComp
Wire Wire Line
	7600 3800 7700 3800
Wire Wire Line
	7600 3600 7700 3600
Wire Wire Line
	7600 3400 7700 3400
$Comp
L power:+3V3 #PWR0118
U 1 1 5EC8B5F2
P 8400 3150
F 0 "#PWR0118" H 8400 3000 50  0001 C CNN
F 1 "+3V3" H 8415 3323 50  0000 C CNN
F 2 "" H 8400 3150 50  0001 C CNN
F 3 "" H 8400 3150 50  0001 C CNN
	1    8400 3150
	1    0    0    -1  
$EndComp
Wire Wire Line
	8400 3150 8400 3600
Wire Wire Line
	8400 3600 8100 3600
Text Label 7200 3400 2    50   ~ 0
LED_R
Text Label 7200 3600 2    50   ~ 0
LED_G
Text Label 7200 3800 2    50   ~ 0
LED_B
Wire Wire Line
	7200 3800 7300 3800
Wire Wire Line
	7200 3600 7300 3600
Wire Wire Line
	7200 3400 7300 3400
$Comp
L Device:L L1
U 1 1 5ECA6404
P 4200 6100
F 0 "L1" V 4019 6100 50  0000 C CNN
F 1 "10u" V 4110 6100 50  0000 C CNN
F 2 "Inductor_SMD:L_1812_4532Metric_Pad1.30x3.40mm_HandSolder" H 4200 6100 50  0001 C CNN
F 3 "~" H 4200 6100 50  0001 C CNN
	1    4200 6100
	0    1    1    0   
$EndComp
Wire Wire Line
	4050 6100 3750 6100
Connection ~ 3750 6100
$Comp
L power:GND #PWR0119
U 1 1 5ECAD7E7
P 5200 6850
F 0 "#PWR0119" H 5200 6600 50  0001 C CNN
F 1 "GND" H 5205 6677 50  0000 C CNN
F 2 "" H 5200 6850 50  0001 C CNN
F 3 "" H 5200 6850 50  0001 C CNN
	1    5200 6850
	1    0    0    -1  
$EndComp
Wire Wire Line
	5200 6850 5200 6700
Wire Wire Line
	5400 4000 5400 3800
Wire Wire Line
	5400 3800 5650 3800
$Comp
L Connector:Conn_01x04_Female J2
U 1 1 5EB9ED17
P 5850 3600
F 0 "J2" H 5878 3576 50  0000 L CNN
F 1 "Conn_01x04_Female" H 5878 3485 50  0000 L CNN
F 2 "fancontrol:CONN_01x04_3-5mm_SMD" H 5850 3600 50  0001 C CNN
F 3 "~" H 5850 3600 50  0001 C CNN
	1    5850 3600
	1    0    0    -1  
$EndComp
$EndSCHEMATC
